<svg xmlns="http://www.w3.org/2000/svg" width="24" height="24" viewBox="0 0 24 24">
  <path d="m0 0h24v24h-24z" fill="none"/>
  <path d="m13.5 15h4.5c1.1045695 0 2 .8954305 2 2v1h-16v-1c0-1.1045695.8954305-2 2-2h4.5v-5.33681558c-1.18247367-.56173197-2-1.76698644-2-3.16318442 0-1.93299662 1.5670034-3.5 3.5-3.5s3.5 1.56700338 3.5 3.5c0 1.39619798-.8175263 2.60145245-2 3.16318442zm-8.5 4h14v2h-14z"/>
</svg>