<svg xmlns="http://www.w3.org/2000/svg" width="24" height="24" viewBox="0 0 24 24">
  <path d="m0 0h24v24h-24z" fill="none"/>
  <path d="m6 19c0 1.1.9 2 2 2h8c1.1 0 2-.9 2-2v-12h-12zm13-15h-3.5l-1-1h-5l-1 1h-3.5v2h14z"/>
</svg>