
<svg width="24" height="24" viewBox="0 0 24 24" version="1.1" xmlns="http://www.w3.org/2000/svg" xmlns:xlink="http://www.w3.org/1999/xlink">
    <g id="Page-1" stroke="none" stroke-width="1" fill="none" fill-rule="evenodd">
        <g id="ic_annotation_polyline_black_24px">
            <polygon id="Path" points="0 0 24 0 24 24 0 24"></polygon>
            <path d="M11.2229827,11.7207264 L11.5361061,13.6977095 L9.59932057,14.0850666 L9.00384592,15.156921 L7.27155933,14.1567849 L8.30016792,12.3052894 L11.2229827,11.7207264 Z M13.1857389,11.3281752 L15.3713261,10.8910577 L16.1895264,9.41882416 L17.9218087,10.4189578 L16.670298,12.6708712 L13.4988623,13.3051583 L13.1857389,11.3281752 Z M6.30014126,15.9053374 L8.03242783,16.9054735 L6.2883676,20.0447819 L4.54005311,19.0734961 L6.30014126,15.9053374 Z M17.1612077,7.67042358 L18.6851109,4.92837923 L20.4332779,5.89993073 L18.89349,8.67055726 L17.1612077,7.67042358 Z" id="Combined-Shape" fill="#000000"></path>
        </g>
    </g>
</svg>