<svg xmlns="http://www.w3.org/2000/svg" width="24" height="24" viewBox="0 0 24 24">
  <path d="m0 0h24v24h-24z" fill="none"/>
  <path d="m12 4c-4.41333333 0-8 3.58666667-8 8 0 4.4133333 3.58666667 8 8 8 4.4133333 0 8-3.5866667 8-8 0-4.41333333-3.5866667-8-8-8z"/>
</svg>