<svg xmlns="http://www.w3.org/2000/svg" width="24" height="24" viewBox="0 0 24 24">
  <path d="m0 0h24v24h-24z" fill="none"/>
  <path d="m16.9739609 5.6099999h-2.5857864v-2h4 2v6h-2v-2.58578644l-13.36396104 13.36396104-1.41421356-1.4142136z"/>
</svg>