<svg xmlns="http://www.w3.org/2000/svg" width="24" height="24" viewBox="0 0 24 24">
  <path d="m0 0h24v24h-24z" fill="none"/>
  <path d="m2.75941257 13.4482295-.54944226-1.9230478 7.44464759-2.12704222 6.0000767 4.00005112 6.5594501-1.8730507.5491501 1.9231314-7.4486065 2.1269493-5.99992332-3.9999489z" transform="matrix(.70710678 -.70710678 .70710678 .70710678 -5.172166 12.486647)"/>
</svg>