<svg width="24" height="24" viewBox="0 0 24 24" xmlns="http://www.w3.org/2000/svg" xmlns:xlink="http://www.w3.org/1999/xlink">
    <g id="Page-1" stroke="none" stroke-width="1" fill="none">
        <g id="ic_annotation_line_black_24px">
            <path d="M18,7.41421354 L7.41421357,18 L10,18 L10,20 L4.00000003,20 L4,14 L6,14 L6,16.5857864 L16.5857864,6 L14,6 L14,4 L20,4 L20,9.99999997 L18,9.99999997 L18,7.41421354 Z" id="Combined-Shape" fill="#000000"></path>
        </g>
    </g>
</svg>