<svg xmlns="http://www.w3.org/2000/svg" width="24" height="24" viewBox="0 0 24 24">
  <path d="m0 0h24v24h-24z" fill="none"/>
  <path d="m16.7375649 4 4.4985031 7.9970061-4.5012283 8.0024565-9.2330194.0011841-4.5018203-8.0036406 4.49832909-7.9966582zm-8.00149692 1.99700608-3.5 6.00000002 3.5 6h6.76393202l3.5-6-3.5-6.00000002z"/>
</svg>