<?xml version="1.0" encoding="UTF-8" standalone="no"?>
<!DOCTYPE svg PUBLIC "-//W3C//DTD SVG 1.1//EN" "http://www.w3.org/Graphics/SVG/1.1/DTD/svg11.dtd">
<svg version="1.1" id="Layer_1" xmlns="http://www.w3.org/2000/svg" xmlns:xlink="http://www.w3.org/1999/xlink" x="0px" y="0px" width="24px" height="24px" viewBox="0 0 24 24" enable-background="new 0 0 24 24" xml:space="preserve">  <image id="image0" width="24" height="24" x="0" y="0"
    href="data:image/png;base64,iVBORw0KGgoAAAANSUhEUgAAABgAAAAYCAQAAABKfvVzAAAABGdBTUEAALGPC/xhBQAAACBjSFJN
AAB6JgAAgIQAAPoAAACA6AAAdTAAAOpgAAA6mAAAF3CculE8AAAAAmJLR0QA/4ePzL8AAAAHdElN
RQfjAgwEFzfWJaYRAAAAiUlEQVQ4y+3Suw2DMBSF4d8OQ7inRYrZIfIMcXqWRBmCBehBYodQ8DAi
2L59chq7+I6u/IB/ojHb5ibidxo0PYAWcR+cEvAXijetrGDxR54rfPF04YKHW9I8KRhyHIp1raix
QJfmYcKIoqRiYkjx48P1e8XE+fnQjgcfiPPz11imJPhVHE6OfyQzAWIf5W+O+OsAAAAldEVYdGRh
dGU6Y3JlYXRlADIwMTktMDItMTJUMTE6MjM6NTUtMDc6MDACNDWIAAAAJXRFWHRkYXRlOm1vZGlm
eQAyMDE5LTAyLTEyVDExOjIzOjU1LTA3OjAwc2mNNAAAAABJRU5ErkJggg==" />
</svg>
