<svg xmlns="http://www.w3.org/2000/svg" width="24" height="24" viewBox="0 0 24 24">
  <path d="m0 0h24v24h-24z" fill="none"/>
  <path d="m9 16.17-4.17-4.17-1.42 1.41 5.59 5.59 12-12-1.41-1.41z"/>
</svg>