<?xml version="1.0" encoding="iso-8859-1"?>
<!-- Generator: Adobe Illustrator 18.1.1, SVG Export Plug-In . SVG Version: 6.00 Build 0)  -->
<svg version="1.1" id="Capa_1" xmlns="http://www.w3.org/2000/svg" xmlns:xlink="http://www.w3.org/1999/xlink" x="0px" y="0px"
	 viewBox="0 0 100 100" style="enable-background:new 0 0 100 100;" xml:space="preserve">
<path d="M75,79H10V34h12.975c0,0,3.447-4.484,10.85-10H5c-2.762,0-5,2.238-5,5v55c0,2.762,2.238,5,5,5h75
	c2.762,0,5-2.238,5-5V65.268l-10,8.226V79z M66.81,44.25V62L100,35.997L66.81,11v15.652C26.5,26.652,26.5,66.5,26.5,66.5
	C37.908,47.759,44.93,44.25,66.81,44.25z"/>
</svg>