<svg xmlns="http://www.w3.org/2000/svg" width="24" height="24" viewBox="0 0 24 24">
  <path d="m0 0h24v24h-24z" fill="none"/>
  <path d="m4 8h4v-4h-4zm6 12h4v-4h-4zm-6 0h4v-4h-4zm0-6h4v-4h-4zm6 0h4v-4h-4zm6-10v4h4v-4zm-6 4h4v-4h-4zm6 6h4v-4h-4zm0 6h4v-4h-4z"/>
</svg>