/DocumentSetup<</PageOrigin [18 39 ]/RulerOrigin [0 0 ]>> BDC
EMC
/Layer<</Title (Background)/Visible true /Preview true /Editable true /Printed true /Dimmed false /Color [20224 32768 65535 ]>> BDC
/Attribute<</ShowCenterPoint false >> DP
0 0 0 rg
610.5889 -3.2949 m
610.5889 794.4692 l
0 794.4692 l
0 -3.2949 l
610.5889 -3.2949 l
h
f
/Group BMC
/PointText<</Matrix [1 0 0 1 571.4492 -246.5996 ]/Vertical false >> BDC
/Pgf BMC
EMC
EMC
/PointText<</Matrix [1 0 0 1 591.9209 -252.7754 ]/Vertical false >> BDC
/Pgf BMC
EMC
EMC
1 1 1 rg
0.4823 0.4235 0.4 RG
0 i 0.4 w 4 M 
353.6016 752.9658 m
352.1924 729.3809 346.4824 705.8335 343.2949 682.3979 c
332.9043 606.0366 328.5371 528.8584 320.1963 452.2739 c
310.8057 366.0371 300.4648 280.2275 299.3672 193.5195 c
299.0356 167.418 296.8813 127.5527 306.9756 103.1338 c
302.7837 104.791 l
295.7183 103.8789 l
286.0493 128.4346 288.8936 168.2656 289.6763 194.3574 c
292.2783 281.042 304.1025 366.6934 314.9893 452.7871 c
324.6553 529.2417 330.3604 606.3496 342.0732 682.5518 c
345.666 705.9414 351.7822 729.4028 353.6016 752.9658 c
B
1 1 1 RG
382.0801 509.8501 m
377.5518 505.6846 362.9629 464.1904 319.9727 442.6577 c
S
383.124 512.7407 m
378.5967 508.5747 364.0078 467.0806 321.0156 445.5479 c
S
383.0146 515.3848 m
378.4863 511.2192 363.8994 469.7275 320.9082 448.1929 c
S
383.0449 519.3804 m
378.5166 515.2144 363.9277 473.7202 320.9365 452.187 c
S
383.3096 521.9937 m
378.7822 517.8281 364.1924 476.3335 321.2012 454.8013 c
S
383.5732 524.6089 m
379.0459 520.4434 364.4561 478.9492 321.4658 457.417 c
S
380.8623 525.0415 m
376.335 520.876 364.7217 481.5645 321.7295 460.0308 c
S
381.127 527.6572 m
376.5996 523.4912 364.9854 484.1782 321.9941 462.6465 c
S
381.3906 530.271 m
376.8633 526.1045 365.252 486.7935 322.2598 465.2603 c
S
381.6553 532.8857 m
377.1279 528.7202 365.5156 489.4072 322.5234 467.875 c
S
381.9189 535.4995 m
377.3916 531.334 365.7813 492.0225 322.7881 470.4917 c
S
382.1836 538.1152 m
377.6563 533.9497 366.0449 494.6382 323.0518 473.104 c
S
382.4473 540.7305 m
377.9219 536.5649 366.3096 497.252 323.3174 475.7202 c
S
382.5127 545.0605 m
377.9844 540.8945 366.3691 501.5835 323.3789 480.0503 c
S
374.4805 415.502 m
362.1084 390.5498 331.7646 364.0977 309.3145 347.0801 c
S
374.832 418.9883 m
362.4609 394.0361 332.1182 367.5859 309.667 350.5645 c
S
375.1846 422.4756 m
362.8125 397.5244 332.4707 371.0723 310.0195 354.0498 c
S
375.5381 425.9604 m
363.167 401.0083 332.8223 374.5566 310.373 357.5371 c
S
375.8887 429.4468 m
363.5186 404.4946 333.1768 378.0439 310.7256 361.0244 c
S
376.2441 432.9331 m
363.8721 407.9819 333.5293 381.5313 311.0781 364.5088 c
S
376.5957 436.4194 m
364.2236 411.4658 333.8809 385.0186 311.4316 367.9951 c
S
376.9482 439.9053 m
364.5762 414.9531 334.2334 388.501 311.7822 371.4834 c
S
377.3018 443.3916 m
364.9287 418.4395 334.5869 391.9893 312.1367 374.9678 c
S
377.6523 446.8789 m
365.2822 421.9268 334.9375 395.4756 312.4893 378.4531 c
S
378.0068 450.3643 m
365.6348 425.4121 335.292 398.9639 312.8408 381.9404 c
S
378.3584 453.8516 m
365.9883 428.8994 335.6445 402.4473 313.1934 385.4277 c
S
378.71 457.3364 m
366.3398 432.3843 335.9971 405.9346 313.5469 388.9121 c
S
379.0654 460.8247 m
366.6914 435.8726 336.3486 409.4219 313.8984 392.3984 c
S
379.416 464.3091 m
367.0459 439.3569 336.7021 412.9048 314.252 395.8867 c
S
379.7695 467.7974 m
367.3965 442.8452 337.0537 416.3931 314.6045 399.373 c
S
380.1221 471.2822 m
367.752 446.3301 337.4082 419.8794 314.957 402.8569 c
S
380.4746 474.7695 m
368.1025 449.8174 337.7598 423.3652 315.3086 406.3452 c
S
380.8262 478.2554 m
368.4551 453.3027 338.1123 426.8516 315.6621 409.8315 c
S
381.1797 481.7402 m
368.8096 456.79 338.4648 430.3389 316.0137 413.3188 c
S
381.5313 485.2275 m
369.1602 460.2759 338.8174 433.8242 316.3682 416.8042 c
S
381.8857 488.7134 m
369.5127 463.7612 339.1689 437.3115 316.7197 420.29 c
S
291.2603 232.5664 m
272.0728 241.1465 250.52 260.9424 251.5615 281.5576 c
S
291.6138 236.0498 m
272.4258 244.6348 250.8735 264.4287 251.9146 285.0449 c
S
291.9658 239.5371 m
272.7778 248.1191 251.2256 267.917 252.2671 288.5293 c
S
292.3188 243.0244 m
273.1313 251.6055 251.5786 271.4004 252.6196 292.0146 c
S
292.6709 246.5117 m
273.4829 255.0928 251.9307 274.8877 252.9722 295.5039 c
S
293.0239 249.9951 m
273.8364 258.5801 252.2842 278.375 253.3252 298.9893 c
S
293.376 253.4814 m
274.1885 262.0635 252.6357 281.8584 253.6772 302.4736 c
S
293.7295 256.9697 m
274.5415 265.5498 252.9893 285.3457 254.0303 305.9619 c
S
294.0815 260.4561 m
274.8936 269.0381 253.3413 288.832 254.3828 309.4482 c
S
294.4341 263.9404 m
275.2471 272.5244 253.6938 292.3203 254.7354 312.9355 c
S
294.7866 267.4277 m
275.5986 276.0088 254.0464 295.8047 255.0874 316.4199 c
S
295.1392 270.915 m
275.9517 279.4961 254.3994 299.291 255.4409 319.9072 c
S
295.4917 274.3994 m
276.3042 282.9834 254.7515 302.7783 255.7925 323.3936 c
S
295.8447 277.8848 m
276.6567 286.4678 255.1045 306.2656 256.146 326.877 c
S
264.6147 340.2383 m
266.4404 321.2227 277.5171 298.8545 295.502 287.2871 c
S
264.9683 343.7246 m
266.793 324.71 277.8701 302.3398 295.8545 290.7754 c
S
265.3208 347.2129 m
267.1455 328.1973 278.2227 305.8291 296.207 294.2617 c
S
265.6729 350.6963 m
267.498 331.6807 278.5752 309.3145 296.5596 297.749 c
S
266.0264 354.1836 m
267.8511 335.1689 278.9277 312.7988 296.9126 301.2334 c
S
266.3779 357.6709 m
268.2031 338.6553 279.2803 316.2861 297.2646 304.7207 c
S
266.7314 361.1582 m
268.5562 342.1387 279.6328 319.7734 297.6177 308.208 c
S
267.0835 364.6426 m
268.9087 345.626 279.9858 323.2578 297.9697 311.6904 c
S
267.4365 368.1289 m
269.2612 349.1133 280.3384 326.7441 298.3228 315.1787 c
S
267.7886 371.6172 m
269.6138 352.6006 280.6909 330.2324 298.6748 318.665 c
S
268.1421 375.1025 m
269.9668 356.084 281.043 333.7188 299.0283 322.1533 c
S
268.4941 378.5869 m
270.3184 359.5723 281.396 337.2021 299.3799 325.6367 c
S
268.8472 382.0742 m
270.6719 363.0586 281.748 340.6895 299.7334 329.124 c
S
269.1992 385.5615 m
271.0239 366.5469 282.1016 344.1768 300.0854 332.6113 c
S
269.5522 389.0459 m
271.377 370.0293 282.4536 347.6641 300.438 336.0986 c
S
269.9043 392.5322 m
271.729 373.5166 282.8066 351.1475 300.79 339.582 c
S
270.2578 396.02 m
272.0825 377.0039 283.1587 354.6357 301.1445 343.0684 c
S
270.6099 399.5063 m
272.4341 380.4912 283.5117 358.1221 301.4956 346.5566 c
S
270.9624 402.9902 m
272.7876 383.9756 283.8638 361.6104 301.8491 350.043 c
S
271.3149 406.4775 m
273.1396 387.4619 284.2173 365.0928 302.2012 353.5273 c
S
271.6675 409.9648 m
273.4927 390.9502 284.5693 368.5801 302.5532 357.0146 c
S
272.02 413.4521 m
273.8447 394.4346 284.9219 372.0674 302.9058 360.502 c
S
346.1162 748.5332 m
346.3311 743.4614 349.3086 739.1602 351.8008 736.6392 c
S
323.0449 536.1392 m
312.5254 543.4673 296.6777 561.3872 296.1528 576.6572 c
S
304.1465 283.1787 m
325.6992 308.2139 360.5186 321.8311 368.3818 355.1953 c
S
304.5 286.665 m
326.0508 311.6982 360.8711 325.3193 368.7334 358.6787 c
S
304.8511 290.1523 m
326.4033 315.1855 361.2227 328.8027 369.0869 362.167 c
S
305.2056 293.6367 m
326.7568 318.6719 361.5762 332.2891 369.4395 365.6533 c
S
305.5576 297.124 m
327.1084 322.1602 361.9287 335.7764 369.79 369.1406 c
S
305.9102 300.6104 m
327.4619 325.6445 362.2803 339.2637 370.1465 372.625 c
S
306.2622 304.0986 m
327.8145 329.1299 362.6348 342.748 370.4971 376.1123 c
S
306.6157 307.582 m
328.167 332.6172 362.9863 346.2344 370.8496 379.5986 c
S
306.9668 311.0684 m
328.5195 336.1045 363.3389 349.7227 371.2031 383.082 c
S
307.3213 314.5557 m
328.8721 339.5889 363.6914 353.207 371.5537 386.5713 c
S
307.6729 318.043 m
329.2236 343.0762 364.0439 356.6924 371.9082 390.0566 c
S
308.0254 321.5273 m
329.5781 346.5635 364.3965 360.1797 372.2598 393.5439 c
S
308.3779 325.0137 m
329.9297 350.0479 364.749 363.667 372.6113 397.0283 c
S
308.7314 328.502 m
330.2822 353.5332 365.1006 367.1514 372.9668 400.5156 c
S
309.082 331.9863 m
330.6348 357.0225 365.4561 370.6377 373.3184 404.002 c
S
309.4365 335.4717 m
330.9883 360.5078 365.8076 374.126 373.6709 407.4902 c
S
309.7891 338.9609 m
331.3389 363.9922 366.1592 377.6123 374.0234 410.9741 c
S
310.1416 342.4463 m
331.6934 367.4795 366.5137 381.0967 374.376 414.4604 c
S
339.4346 644.8657 m
352.0811 648.2402 384.2227 669.1821 375.6367 682.8799 c
S
339.7852 648.353 m
352.4307 651.7256 384.5742 672.668 375.9873 686.3652 c
S
340.1396 651.8389 m
352.7852 655.2129 384.9297 676.1553 376.3428 689.8525 c
S
340.4922 655.3262 m
353.1377 658.6987 385.2803 679.6406 376.6934 693.3379 c
S
340.8447 658.811 m
353.4893 662.186 385.6338 683.1279 377.0469 696.8252 c
S
341.1973 662.2983 m
353.8438 665.6709 385.9863 686.6133 377.4004 700.3105 c
S
341.5488 665.7842 m
354.1943 669.1567 386.3389 690.1006 377.75 703.7979 c
S
341.9014 669.2715 m
354.5488 672.644 383.8564 693.5962 375.2705 707.2935 c
S
342.2559 672.7563 m
354.9014 676.1294 384.208 697.0835 375.6211 710.7793 c
S
343.0498 678.249 m
355.6953 681.6216 377.3496 698.1772 376.5098 704.7051 c
S
/Group BMC
345.8027 701.4658 m
352.4883 707.4648 371.6289 713.5366 371.9004 722.7393 c
S
346.5039 705.5762 m
352.6582 711.2158 370.1758 716.9424 370.5156 725.4248 c
S
347.2119 709.6792 m
352.835 714.959 368.7295 720.3408 369.1387 728.1025 c
S
347.9199 713.7695 m
353.0117 718.6895 367.2832 723.7271 367.7598 730.7681 c
S
348.626 717.8701 m
353.1865 722.4302 365.835 727.123 366.3799 733.4434 c
S
349.3311 721.9785 m
353.3613 726.1792 364.3867 730.5273 365 736.127 c
S
350.0322 726.0801 m
353.5303 729.9209 362.9326 733.9238 363.6152 738.8032 c
S
350.7441 730.1699 m
353.7119 733.6514 361.4912 737.3096 362.2422 741.4683 c
S
351.4492 734.2749 m
353.8857 737.3965 360.042 740.71 360.8613 744.1479 c
S
352.1641 738.3579 m
354.0693 741.1196 358.6025 744.0889 359.4893 746.8062 c
S
352.8789 742.4414 m
354.2529 744.8438 357.1631 747.4678 358.1191 749.4648 c
S
353.5977 746.521 m
354.4404 748.5635 355.7275 750.8428 356.752 752.1191 c
S
EMC
379.5488 601.1289 m
371.5771 587.0518 347.4717 563.0742 330.707 558.5815 c
S
379.9014 604.6147 m
371.9297 590.5391 347.8242 566.561 331.0586 562.0674 c
S
380.2539 608.1021 m
372.2832 594.0249 348.1758 570.0469 331.4111 565.5547 c
S
380.6064 611.5869 m
372.6348 597.5122 348.5293 573.5342 331.7646 569.0396 c
S
380.959 615.0742 m
372.9863 600.9976 348.8828 577.0195 332.1172 572.5254 c
S
379.4121 617.8228 m
371.8467 604.4639 353.8965 581.7563 332.4697 576.0127 c
S
379.7637 621.3086 m
371.792 607.2314 349.5889 583.9922 332.8223 579.4985 c
S
380.1162 624.7959 m
372.1445 610.7188 349.9395 587.4795 333.1748 582.9858 c
S
380.4707 628.2817 m
372.498 614.2046 350.293 590.9653 333.5264 586.4707 c
S
380.8203 631.7686 m
372.8496 617.6919 350.6455 594.4521 333.8799 589.958 c
S
381.1748 635.2539 m
373.2031 621.1768 350.9961 597.9375 334.2324 593.4438 c
S
381.5273 638.7412 m
373.5547 624.6641 351.3506 601.4233 334.5859 596.9307 c
S
381.0322 641.793 m
378.4346 637.2026 366.2861 611.0659 334.9375 600.416 c
S
380.9004 644.1821 m
372.9287 630.1055 352.0547 608.3955 335.29 603.9033 c
S
381.207 647.2148 m
373.2344 633.1396 352.4092 611.8828 335.6426 607.3892 c
S
380.3818 650.2168 m
372.4121 636.1396 352.7607 615.3687 335.9961 610.8765 c
S
380.7383 653.7017 m
372.7666 639.6245 353.1133 618.856 336.3477 614.3613 c
S
381.0889 657.189 m
373.1182 643.1118 353.4658 622.3408 336.7012 617.8486 c
S
381.4424 660.6748 m
373.4707 646.5977 353.8184 625.8281 337.0537 621.3345 c
S
380.8457 662.2012 m
372.875 648.124 354.1699 629.314 337.4063 624.8193 c
S
327.8408 520.4463 m
342.7715 533.7871 375.417 547.2539 379.4912 567.4263 c
S
327.333 522.8574 m
342.2666 536.1992 375.7705 550.7412 379.8428 570.9136 c
S
327.6855 526.3423 m
342.6172 539.6846 376.123 554.2261 380.1963 574.3994 c
S
328.0391 529.8296 m
342.9697 543.1714 376.4756 557.7119 380.5488 577.8857 c
S
328.3906 533.3154 m
343.3242 546.6572 376.8271 561.1992 380.9004 581.3716 c
S
328.7432 536.8022 m
343.6748 550.1426 377.1807 564.6846 381.2549 584.8589 c
S
329.0957 540.2876 m
344.0293 553.6294 377.5322 568.1714 381.6074 588.3447 c
S
329.4492 543.7749 m
344.3809 557.1152 376.7656 571.4404 380.8408 591.6108 c
S
329.8008 547.2607 m
344.7334 560.6025 377.1172 574.9253 381.1904 595.0981 c
S
330.1543 550.748 m
345.0879 564.0879 377.4697 578.4126 381.5439 598.584 c
S
330.9785 555.1938 m
344.5918 563.582 377.8223 581.8984 381.8975 602.0708 c
S
324.4639 487.0674 m
350.8418 500.4292 363.3457 522.6553 379.8242 545.1338 c
S
324.8164 490.5527 m
351.1934 503.9165 363.6973 526.1406 380.1787 548.6211 c
S
325.1699 494.0396 m
351.5488 507.4023 364.0508 529.6279 380.5303 552.1069 c
S
325.5215 497.5254 m
351.8984 510.8896 364.4023 533.1138 380.8828 555.5938 c
S
325.875 501.0127 m
352.2529 514.3745 364.7559 536.6006 381.2373 559.0791 c
S
326.2275 504.4976 m
352.6055 517.8618 365.1084 540.0859 381.5869 562.5664 c
S
326.5801 507.9849 m
352.9561 521.3477 365.459 543.5732 381.9404 566.0518 c
S
326.9316 511.4707 m
353.3096 524.833 365.8154 547.0591 382.2939 569.5391 c
S
327.2852 514.958 m
353.6621 528.3198 366.165 550.5439 382.6445 573.0249 c
S
328.3809 518.3628 m
349.0938 528.8535 367.8154 555.7993 383 576.5117 c
S
300.9424 225.9023 m
324.0615 229.7451 352.3174 246.1758 366.7852 262.6318 c
S
301.2944 229.3906 m
324.416 233.2324 352.6689 249.6641 367.1357 266.1182 c
S
301.647 232.877 m
324.7676 236.7197 353.0205 253.1504 367.4883 269.6025 c
S
302 236.3604 m
325.1201 240.2041 353.376 256.6348 367.8428 273.0898 c
S
302.3525 239.8486 m
325.4727 243.6904 353.7275 260.1221 368.1934 276.5771 c
S
302.7056 243.335 m
325.8252 247.1787 354.0801 263.6094 368.5479 280.0635 c
S
303.0576 246.8223 m
326.1777 250.6631 354.4326 267.0967 368.8994 283.5469 c
S
303.4102 250.3066 m
326.5313 254.1484 354.7852 270.5791 369.2529 287.0352 c
S
303.7622 253.7939 m
326.8838 257.6357 355.1367 274.0674 369.6064 290.5215 c
S
304.1157 257.2803 m
327.2363 261.123 355.4902 277.5537 369.9561 294.0059 c
S
304.4678 260.7686 m
327.5879 264.6074 355.8418 281.042 370.3105 297.4932 c
S
304.8213 264.252 m
327.9404 268.0938 356.1963 284.5254 370.6631 300.9805 c
S
305.1733 267.7383 m
328.293 271.582 356.5479 288.0127 371.0137 304.4668 c
S
305.5259 271.2256 m
328.6475 275.0684 356.9004 291.5 371.3691 307.9502 c
S
305.8779 274.7129 m
328.999 278.5527 357.2539 294.9873 371.7197 311.4385 c
S
306.2314 278.1973 m
329.3516 282.04 357.6055 298.4707 372.0742 314.9248 c
S
306.5835 281.6836 m
329.7041 285.5273 357.958 301.957 372.4258 318.4131 c
S
306.9365 285.1719 m
330.0566 289.0137 358.3115 305.4453 372.7783 321.8965 c
S
303.376 365.1514 m
286.5396 373.6885 271.8408 394.8643 274.5879 413.2373 c
S
303.7295 368.6348 m
286.8916 377.1758 272.1934 398.3506 274.9399 416.7246 c
S
304.0815 372.1221 m
287.2441 380.6592 272.5459 401.8394 275.293 420.2104 c
S
304.4351 375.6084 m
287.5967 384.1455 272.8989 405.3252 275.645 423.6968 c
S
304.7871 379.0928 m
287.9497 387.6338 273.251 408.8096 275.9985 427.1831 c
S
305.1396 382.5811 m
288.3018 391.1201 273.604 412.2969 276.3501 430.6704 c
S
305.4917 386.0674 m
288.6548 394.6045 273.9575 415.7827 276.7036 434.1553 c
S
305.8447 389.5547 m
289.0073 398.0913 274.3091 419.27 277.0557 437.6416 c
S
306.1973 393.0391 m
289.3599 401.5786 271.9766 426.0103 274.7231 444.3838 c
S
306.5503 396.5259 m
289.7124 405.063 272.3286 429.4976 275.0757 447.8701 c
S
306.9028 400.0122 m
290.0654 408.5488 272.6816 432.9824 275.4277 451.356 c
S
307.2549 403.5005 m
290.4175 412.0376 273.0337 436.4707 275.7813 454.8413 c
S
307.6074 406.9844 m
290.7705 415.5234 273.3867 439.9551 276.1328 458.3286 c
S
307.9609 410.4707 m
291.123 419.0088 273.7402 443.4434 276.4863 461.8149 c
S
308.3125 413.959 m
291.4756 422.4961 274.0918 446.9287 276.8384 465.3008 c
S
308.666 417.4453 m
291.8291 425.9824 274.4453 450.4136 277.1914 468.7871 c
S
309.0186 420.9292 m
292.1812 429.4683 274.7974 453.9019 277.5435 472.2734 c
S
312.5371 428.5259 m
297.1826 450.6157 277.3945 455.9956 276.3135 471.2402 c
S
312.8896 432.0122 m
297.5356 454.1011 277.7476 459.4819 276.6655 474.7266 c
S
313.2412 435.498 m
305.1782 447.0996 278.4219 465.5151 277.4688 478.9512 c
S
313.5947 438.9844 m
305.5308 450.5869 278.7744 469 277.8213 482.4375 c
S
313.9473 442.4707 m
305.8838 454.0718 279.127 472.4873 278.1738 485.9233 c
S
314.3008 445.957 m
306.2363 457.5591 279.48 475.9731 278.5264 489.4092 c
S
314.6523 449.4429 m
306.5884 461.0444 279.832 479.4604 278.8794 492.8965 c
S
315.0049 452.9302 m
306.9409 464.5327 281.2783 482.6226 280.3247 496.0571 c
S
315.3574 456.4155 m
307.2939 468.0166 281.6313 486.1079 280.6777 499.5439 c
S
315.71 459.9028 m
307.6465 471.5049 281.9834 489.5952 281.0298 503.0293 c
S
316.0625 463.3877 m
308 474.9902 282.3369 493.0811 281.3828 506.5166 c
S
316.416 466.876 m
303.9653 484.7866 284.3389 494.127 283.3779 507.6812 c
S
316.7686 470.3604 m
308.7041 481.9629 284.6836 497.73 283.7295 511.1665 c
S
317.1201 473.8467 m
309.0566 485.4482 285.0361 501.2173 284.083 514.6533 c
S
317.4727 477.334 m
309.4092 488.9355 285.3887 504.7031 284.4351 518.1392 c
S
317.8262 480.8193 m
309.7617 492.4209 285.7417 508.1885 284.7881 521.6265 c
S
318.1777 484.3062 m
310.1152 495.9082 286.0942 511.6758 285.1401 525.1113 c
S
318.5313 487.792 m
310.4678 499.3936 286.4468 515.1611 285.4937 528.5972 c
S
318.8838 491.2793 m
310.8193 502.8809 286.7988 518.6484 285.8452 532.0845 c
S
288.2119 535.1523 m
287.3379 517.7817 308.6484 505.9253 319.5625 494.2808 c
S
288.5654 538.6382 m
287.6914 521.269 309 509.4126 319.9141 497.7681 c
S
288.9175 542.124 m
288.043 524.7544 309.3525 512.8979 320.2686 501.2534 c
S
289.2705 545.6113 m
288.3965 528.2417 309.707 516.3853 320.6201 504.7407 c
S
289.6226 549.0962 m
288.7485 531.7271 310.0586 519.8711 320.9736 508.2261 c
S
289.9756 552.5835 m
289.1011 535.2144 310.4111 523.3574 321.3252 511.7134 c
S
290.3276 556.0693 m
289.4536 538.6997 310.7637 526.8433 321.6777 515.1987 c
S
291.9375 562.6162 m
291.0625 545.2451 311.1162 530.3306 322.0303 518.686 c
S
292.2896 566.1016 m
291.4155 548.7319 311.4678 533.8164 322.3848 522.1714 c
S
292.6426 569.5884 m
291.7686 552.2178 311.8223 537.3037 322.7354 525.6587 c
S
292.9946 573.0742 m
292.1206 555.7051 312.1738 540.7886 323.0889 529.144 c
S
293.3481 576.5601 m
292.4736 559.1904 312.5273 544.2744 323.4414 532.6313 c
S
295.2227 580.2505 m
294.5317 566.3633 308.3037 544.3032 323.5732 539.25 c
S
295.5747 583.7354 m
294.8838 569.8506 308.6582 547.7905 323.9258 542.7373 c
S
295.9277 587.2227 m
295.2368 573.3354 309.0098 551.2759 324.2773 546.2227 c
S
296.2803 590.7085 m
295.5894 576.8228 309.3623 554.7632 324.6318 549.71 c
S
296.6328 594.1958 m
295.9419 580.3086 309.7148 558.2485 324.9844 553.1958 c
S
296.9854 597.6812 m
296.2944 583.7959 310.0674 561.7358 325.3369 556.6826 c
S
297.3384 601.1665 m
296.6475 587.2813 310.4189 565.2212 325.6895 560.168 c
S
297.6904 604.6538 m
296.999 590.7686 310.7734 568.7085 326.041 563.6553 c
S
300.3999 604.4521 m
300.0874 598.1958 304.4619 574.3994 326.3955 567.1406 c
S
300.752 607.938 m
300.4399 601.6831 304.8149 577.8843 326.748 570.6279 c
S
301.1045 611.4253 m
300.4141 597.5371 311.8301 579.1665 327.0996 574.1138 c
S
301.4565 614.9102 m
300.7661 601.0244 312.1826 582.6523 327.4521 577.6011 c
S
301.811 618.3975 m
301.1191 604.5103 312.5352 586.1396 327.8057 581.0864 c
S
302.1621 621.8833 m
301.4707 607.9976 312.8896 589.6245 328.1572 584.5732 c
S
302.5156 625.3701 m
301.8247 611.4834 313.2402 593.1118 328.5107 588.0591 c
S
302.8677 628.8555 m
302.1772 614.9683 313.5938 596.5977 328.8633 591.5444 c
S
303.2197 632.3428 m
302.5293 618.4556 313.9463 600.085 329.2158 595.0313 c
S
303.5723 635.8286 m
302.8818 621.9414 314.2979 603.5698 329.5674 598.5171 c
S
303.9263 639.3159 m
303.2349 625.4282 314.6504 607.0571 329.9209 602.0044 c
S
304.2778 642.8008 m
303.5864 628.9136 315.0049 610.543 330.2725 605.4902 c
S
304.6309 646.2866 m
303.9404 632.4009 315.3564 614.0303 330.627 608.9771 c
S
304.9834 649.7739 m
304.293 635.8867 315.709 617.5151 330.9785 612.4624 c
S
305.3354 653.2588 m
304.645 639.374 316.0615 621.0024 331.3311 615.9497 c
S
305.688 656.7461 m
304.9971 642.8589 316.4141 624.4883 331.6836 619.4355 c
S
307.7012 659.0864 m
306.8369 641.7261 321.6035 626.374 332.0371 622.9219 c
S
308.1426 661.8164 m
307.4512 647.9292 317.1201 631.4604 332.3877 626.4077 c
S
309.3125 666.9922 m
310.9268 664.2627 309.9346 658.165 311.9473 649.1992 c
313.8242 640.8301 325.6934 632.1567 333.9072 628.6265 c
S
313.5156 670.1587 m
316.6963 664.7793 312.8467 658.6714 314.2256 652.5273 c
316.1016 644.1582 326.0469 635.6416 334.2617 632.1123 c
S
313.8682 673.646 m
317.0488 668.2656 313.1992 662.1567 314.5771 656.0132 c
316.4551 647.644 326.3994 639.1289 334.6133 635.5996 c
S
314.0449 675.3872 m
317.2256 670.0078 313.375 663.8999 314.7549 657.7568 c
316.6299 649.3872 326.5752 640.873 334.79 637.3428 c
S
311.8906 679.6675 m
310.3652 666.1772 331.4482 649.9717 336.043 646.5396 c
S
312.2432 683.1548 m
310.8838 671.1294 327.1797 655.9497 336.6074 648.9087 c
S
315.415 684.085 m
314.0566 672.0591 328.6055 658.7822 338.0303 651.7432 c
S
315.7676 687.5723 m
314.4092 675.5449 328.957 662.2695 338.3838 655.2285 c
S
318.1992 690.8643 m
316.8398 678.8389 329.3096 665.7549 338.7354 658.7139 c
S
318.5518 694.3501 m
317.1934 682.3242 329.6621 669.2422 339.0889 662.2012 c
S
318.9033 697.8354 m
317.5459 685.8101 330.0156 672.7275 339.4414 665.6865 c
S
319.2568 701.3223 m
317.8994 689.2969 330.3672 676.2148 339.7939 669.1738 c
S
320.9209 703.3823 m
319.5625 691.3564 330.7207 679.7002 340.1455 672.6592 c
S
321.2744 706.8682 m
319.9141 694.8423 331.0732 683.1875 340.499 676.1465 c
S
322.5664 710.0576 m
321.5635 701.1738 336.2051 683.1021 340.8506 679.6318 c
S
323.5977 713.0474 m
321.9727 698.6577 338.5244 685.1191 341.2051 683.1191 c
S
330.7363 721.2437 m
331.1445 723.0918 327.2734 709.7007 343.3799 691.8267 c
S
331.0029 726.2769 m
329.0156 717.2764 337.7061 702.0015 343.7314 695.314 c
S
333.3906 726.6387 m
331.4023 717.6406 338.7793 705.4287 344.8076 698.7393 c
S
333.7432 730.126 m
331.7559 721.126 339.1328 708.9141 345.1582 702.2266 c
S
334.0957 733.6118 m
332.1074 724.6133 339.4854 712.3999 345.5117 705.7124 c
S
335.1172 734.3843 m
333.1289 725.3857 339.8379 715.8867 345.8652 709.1982 c
S
338.3184 738.834 m
336.3311 729.834 341.6807 722.1055 347.707 715.4185 c
S
341.957 685.8184 m
333.7793 691.3291 324.5322 709.1211 325.4766 716.0732 c
S
342.5605 688.3413 m
332.7959 694.0132 325.1357 714.8662 326.4951 718.707 c
S
348.3574 721.6387 m
342.6719 724.0762 338.9873 732.6045 339.501 738.3159 c
S
349.3652 724.4116 m
343.6807 726.8491 340.2578 735.5737 340.7725 741.2852 c
S
349.6973 727.6797 m
342.8223 730.6284 341.9873 740.7212 342.2393 743.5327 c
S
351.1641 730.1943 m
345.4795 732.6338 343.1953 740.3359 343.709 746.0474 c
S
351.125 734.5928 m
345.998 737.7773 345.5859 740.8872 344.4961 746.9092 c
S
352.041 741.2544 m
349.2969 743.8408 348.542 746.1348 347.6924 749.7207 c
S
352.5244 744.7056 m
350.9141 746.1006 349.6748 748.4951 349.2617 750.8354 c
S
347.1299 711.8291 m
341.0088 718.5776 336.6338 727.1294 335.3193 735.5674 c
S
342.4219 690.394 m
332.5156 700.4424 326.0713 714.29 327.4102 720.3315 c
S
344.1348 681.5586 m
349.6563 683.9414 372.3721 693.4917 377.3896 705.9912 c
S
344.0703 684.6216 m
349.5889 687.0049 371.5273 696.2813 376.5459 708.7808 c
S
343.1504 675.5225 m
348.668 677.9033 370.6455 687.5654 375.665 700.0645 c
S
346.1104 697.1504 m
351.6309 699.5332 368.5215 707.4067 373.541 719.9058 c
S
345.7344 693.6606 m
351.2539 696.0439 369.3682 704.6167 374.3857 717.1172 c
S
344.1748 689.3721 m
349.6943 691.7554 369.5342 702.5635 374.5518 715.0625 c
S
335.3721 639.459 m
329.1152 641.5615 306.7705 657.7295 311.7666 665.8887 c
S
335.8838 644.5137 m
329.626 646.6162 309.1611 666.1035 310.5195 672.1104 c
S
335.9492 641.4507 m
329.6924 643.5513 309.9375 662.6406 309.9092 669.7803 c
S
379.2949 672.8643 m
378.9629 664.0215 361.2979 650.1958 354.4668 646.374 c
348.1934 642.8623 345.4609 642.7002 338.3164 638.8745 c
S
379.291 669.1279 m
378.9609 660.2847 361.2939 646.457 354.4629 642.6353 c
348.1904 639.1245 345.458 638.9634 338.3145 635.1362 c
S
379.2295 675.9297 m
378.8994 667.0864 361.2314 653.2607 354.4004 649.437 c
348.127 645.9258 345.3965 645.7651 338.251 641.9395 c
S
380.4082 665.2969 m
377.5264 659.0762 360.9209 642.75 354.0898 638.9272 c
347.8154 635.4165 345.084 635.2559 337.9385 631.4282 c
S
380.2383 663.6113 m
376.4072 655.4297 360.6152 639.7173 353.7842 635.8931 c
347.5078 632.3823 344.7773 632.2212 337.6318 628.3955 c
S
324.4619 483.3389 m
327.2051 484.4702 330.0732 486.0347 333.0039 488.123 c
340.9951 493.8159 347.9033 499.5371 354.9414 506.3032 c
362.4248 513.5 366.46 519.9629 371.4414 528.3867 c
372.4219 530.0503 378.5166 540.7446 379.6084 542.3257 c
S
0.4823 0.4235 0.4 RG
248.3472 758.9775 m
249.3179 735.374 246.0059 711.4561 245.1899 687.8525 c
242.5356 610.9526 245.9609 533.7354 245.3677 456.7813 c
244.6992 370.1299 243.0454 283.8242 250.6865 197.3857 c
252.9844 171.3662 254.8555 131.4863 267.3677 108.0059 c
263.4707 109.4609 l
256.0811 107.8164 l
243.978 131.4736 242.7998 171.373 240.9517 197.4209 c
234.8115 283.958 237.9604 370.2305 240.1304 456.8608 c
242.0562 533.7974 239.9717 611.0537 243.959 687.9072 c
245.1826 711.4937 248.9102 735.3643 248.3472 758.9775 c
B
1 1 1 RG
301.1943 519.2266 m
297.1055 514.7051 286.7563 472.1797 246.1118 447.1865 c
S
301.9429 522.1899 m
297.853 517.6689 286.4863 475.436 245.8418 450.4438 c
S
301.5688 524.8159 m
297.479 520.2949 286.0024 478.9438 245.3574 453.9517 c
S
301.1943 528.7959 m
297.1055 524.2744 286.7563 481.749 246.1118 456.7554 c
S
301.1943 531.4209 m
297.1055 526.8999 286.7563 484.3745 246.1118 459.3809 c
S
301.1943 534.0469 m
297.1055 529.5254 286.7563 487.0005 246.1118 462.0073 c
S
298.4512 534.2554 m
294.3638 529.7324 286.7563 489.626 246.1118 464.6328 c
S
298.4512 536.8813 m
294.3638 532.3574 286.7563 492.252 246.1118 467.2593 c
S
298.4512 539.5063 m
294.3638 534.9834 286.7563 494.8774 246.1118 469.8848 c
S
298.4512 542.1323 m
294.3638 537.6089 286.7563 497.5029 246.1118 472.5103 c
S
298.4512 544.7578 m
294.3638 540.2349 286.7563 500.1284 246.1118 475.1357 c
S
298.4512 547.3833 m
294.3638 542.8604 286.7563 502.7544 246.1118 477.7607 c
S
298.4512 550.0093 m
294.3638 545.4863 286.7563 505.3799 246.1118 480.3867 c
S
298.0776 554.3271 m
293.9902 549.8042 286.3828 509.6978 245.7383 484.7051 c
S
303.1279 424.6445 m
293.3213 398.7749 265.7686 369.9307 245.126 351.1279 c
S
303.1279 428.145 m
293.3213 402.2759 265.7686 373.4307 245.126 354.6279 c
S
303.1279 431.646 m
293.3213 405.7773 265.7686 376.9326 245.126 358.1279 c
S
303.1279 435.1475 m
293.3213 409.2783 265.7686 380.4336 245.126 361.6299 c
S
303.1279 438.6489 m
293.3213 412.7788 265.7686 383.9346 245.126 365.1309 c
S
303.1279 442.1489 m
293.3213 416.2788 265.7686 387.4346 245.126 368.6318 c
S
303.1279 445.6489 m
293.3213 419.7803 265.7686 390.9365 245.126 372.1328 c
S
303.1279 449.1504 m
293.3213 423.2803 265.7686 394.4365 245.126 375.6338 c
S
303.1279 452.6519 m
293.3213 426.7808 265.7686 397.9375 245.126 379.1338 c
S
303.1279 456.1528 m
293.3213 430.2817 265.7686 401.439 245.126 382.6348 c
S
303.1279 459.6533 m
293.3213 433.7832 265.7686 404.9399 245.126 386.1357 c
S
303.1279 463.1543 m
293.3213 437.2842 265.7686 408.4404 245.126 389.6377 c
S
303.1279 466.6548 m
293.3213 440.7856 265.7686 411.9404 245.126 393.1377 c
S
303.1279 470.1558 m
293.3213 444.2856 265.7686 415.4419 245.126 396.6377 c
S
303.1279 473.6567 m
293.3213 447.7861 265.7686 418.9419 245.126 400.1392 c
S
303.1279 477.1577 m
293.3213 451.2871 265.7686 422.4424 245.126 403.6401 c
S
302.0171 482.8877 m
300.6191 479.2007 300.3936 457.4849 245.126 407.1416 c
S
302.0171 485.0811 m
292.21 459.2129 265.7686 429.4448 245.126 410.6416 c
S
302.0171 489.4653 m
292.21 463.5942 265.7686 432.9458 245.126 414.1431 c
S
302.0171 493.4106 m
292.21 467.5425 265.7686 436.4463 245.126 417.6431 c
S
301.0483 496.043 m
291.2412 470.1729 265.7686 439.9473 245.126 421.1445 c
S
301.5327 499.1104 m
301.9712 500.2651 287.5435 463.2847 245.126 424.6445 c
S
302.0171 504.8105 m
292.21 478.9424 266.2529 446.9556 245.6104 428.1523 c
S
301.5327 507.8789 m
291.7256 482.0107 265.7686 450.0264 245.126 431.2222 c
S
302.0171 509.6328 m
292.21 483.7646 267.1499 450.4438 245.8418 436.854 c
S
301.5327 512.7031 m
291.7256 486.833 272.2241 458.2686 245.8418 439.9219 c
S
301.5327 517.0859 m
291.7256 491.2178 270.5396 458.3374 246.3262 443.4282 c
S
238.6802 235.5986 m
218.709 242.5625 196.5176 262.3721 195.478 282.9873 c
S
238.6802 239.1006 m
218.709 246.0635 196.5176 265.873 195.478 286.4873 c
S
238.6802 242.6006 m
218.709 249.5654 196.5176 269.373 195.478 289.9883 c
S
238.6802 246.1006 m
218.709 253.0654 196.5176 272.873 195.478 293.4893 c
S
238.6802 249.6016 m
218.709 256.5654 196.5176 276.375 195.478 296.9902 c
S
238.6802 253.1035 m
218.709 260.0664 196.5176 282.5654 195.478 303.1816 c
S
238.6802 256.6045 m
218.709 263.5684 196.5176 286.0674 195.478 306.6826 c
S
238.6802 260.1045 m
218.709 267.0693 196.5176 289.5684 195.478 310.1846 c
S
238.6802 263.6055 m
218.709 270.5693 196.5176 293.0693 195.478 313.6846 c
S
238.6802 267.1055 m
218.709 274.0693 196.5176 296.5693 195.478 317.1846 c
S
238.6802 270.6074 m
218.709 277.5713 196.5176 300.0703 195.478 320.6855 c
S
238.6802 274.1084 m
218.709 281.0723 196.5176 303.5713 195.478 324.1875 c
S
238.6802 277.6094 m
202.9336 290.0742 197.2603 320.7168 196.9307 327.2432 c
S
238.6802 281.1104 m
218.709 288.0752 198.4541 310.1357 197.415 330.751 c
S
237.2271 288.5498 m
217.2559 295.5127 199.9063 316.71 198.8672 337.3252 c
S
236.2588 285.9268 m
216.2871 292.8906 199.4229 313.6436 198.3838 334.2588 c
S
197.415 340.8398 m
201.1479 322.0537 218.3179 300.4766 237.3921 290.4463 c
S
197.415 344.3408 m
201.1479 325.5537 218.3179 303.9775 237.3921 293.9473 c
S
197.415 347.8418 m
201.1479 329.0547 218.3179 307.4795 237.3921 297.4492 c
S
197.415 351.3428 m
201.1479 332.5566 218.3179 310.9805 237.3921 300.9502 c
S
197.415 354.8438 m
201.1479 336.0576 218.3179 314.4814 237.3921 304.4502 c
S
199.8354 357.9004 m
204.0581 336.6494 211.3755 321.6328 237.3921 307.9502 c
S
199.8354 361.4014 m
204.0581 340.1494 211.3755 325.1338 237.3921 311.4521 c
S
199.8354 364.9014 m
204.0581 343.6494 211.3755 328.6357 237.3921 314.9531 c
S
199.8354 368.4014 m
203.5684 349.6162 218.3179 328.4844 237.3921 318.4541 c
S
201.3013 372.1328 m
205.6265 350.3682 213.8169 334.3506 237.3921 321.9541 c
S
201.3013 375.6338 m
205.6265 353.8691 213.8169 337.8525 237.3921 325.4551 c
S
201.3013 379.1338 m
205.6265 357.3711 213.8169 341.3535 237.3921 328.9561 c
S
201.3013 382.6348 m
205.0342 363.8477 218.3179 342.4873 237.3921 332.457 c
S
201.3013 386.1357 m
205.0342 367.3496 218.3179 345.9893 237.3921 335.959 c
S
201.3013 389.6377 m
205.0342 370.8506 218.3179 349.4902 237.3921 339.459 c
S
201.3013 393.1377 m
205.0342 374.3516 218.3179 352.9902 237.3921 342.959 c
S
201.3013 396.6377 m
205.0342 377.8525 218.3179 356.4912 237.3921 346.46 c
S
201.3013 400.1392 m
205.0342 381.3525 218.3179 359.9922 237.3921 349.9609 c
S
201.3013 403.6401 m
205.0342 384.8535 218.3179 363.4932 237.3921 353.4629 c
S
201.3013 407.1416 m
205.0342 388.3545 218.3179 366.9941 237.3921 356.9639 c
S
201.3013 410.6416 m
205.0342 391.8564 218.3179 370.4951 237.3921 360.4639 c
S
202.7417 413.6167 m
206.4741 394.8301 218.3179 373.9961 237.3921 363.9639 c
S
241.3389 753.9453 m
242.064 748.9121 245.4624 744.8745 248.1997 742.5703 c
S
239.7563 540.5327 m
228.542 546.9629 210.9561 563.4985 208.8955 578.6621 c
S
246.4155 287.0654 m
267.1499 305.7598 298.6592 330.2109 303.1279 364.085 c
S
246.4155 290.5664 m
267.1499 311.0215 298.6592 333.7119 303.1279 367.5859 c
S
246.4155 294.0674 m
268.1187 317.5957 298.6592 337.2129 303.1279 371.0859 c
S
246.4155 297.5684 m
264.1655 322.6016 298.3296 338.2119 303.1279 374.5869 c
S
246.4155 301.0684 m
265.355 327.7813 298.6592 344.2148 303.1279 378.0879 c
S
246.4155 304.5693 m
265.355 331.2813 298.6592 347.7148 303.1279 381.5889 c
S
246.4155 308.0713 m
265.355 334.7813 298.6592 351.2158 303.1279 385.0898 c
S
246.4155 311.5723 m
265.355 338.2822 298.6592 354.7168 303.1279 388.5908 c
S
246.4155 315.0723 m
265.355 341.7842 298.6592 358.2188 303.1279 392.0908 c
S
246.4155 318.5723 m
265.355 345.2852 298.6592 361.7188 303.1279 395.5918 c
S
246.4155 322.0742 m
265.355 348.7852 298.6592 365.2188 303.1279 399.0933 c
S
246.4155 325.5752 m
265.355 352.2852 298.6592 368.7207 303.1279 402.5947 c
S
246.4155 329.0762 m
265.355 355.7871 298.6592 372.2217 303.1279 406.0957 c
S
246.4155 332.5762 m
265.355 359.2881 298.6592 375.7227 303.1279 409.5957 c
S
246.4155 336.0771 m
265.355 362.7891 298.6592 379.2227 303.1279 413.0962 c
S
246.4155 339.5781 m
265.355 366.2891 298.6592 382.7227 303.1279 416.5977 c
S
246.4155 343.0791 m
265.355 369.79 298.6592 386.2246 303.1279 420.0977 c
S
246.4155 346.5811 m
265.355 373.291 298.6592 389.7256 303.1279 423.5977 c
S
245.126 650.1602 m
257.3799 654.5635 287.2793 678.0713 277.3477 691.0029 c
S
245.126 653.6611 m
257.3799 658.0645 287.2793 681.5723 277.3477 694.5039 c
S
245.126 657.1616 m
257.3799 661.5649 287.2793 685.0728 277.3477 698.0044 c
S
245.126 660.6621 m
257.3799 665.0659 287.2793 688.5742 277.3477 701.5054 c
S
245.126 664.1636 m
257.3799 668.5674 287.2793 692.0747 277.3477 705.0068 c
S
245.126 667.6646 m
257.3799 672.0679 287.2793 695.5757 277.3477 708.5073 c
S
245.126 671.165 m
257.3799 675.5684 287.2793 699.0762 277.3477 712.0078 c
S
245.126 674.6665 m
257.3799 679.0693 284.4546 702.355 274.5239 715.2852 c
S
245.126 678.167 m
257.3799 682.5708 284.4546 705.856 274.5239 718.7856 c
S
245.3638 683.7021 m
257.6177 688.1055 277.5146 706.3789 276.019 712.8096 c
S
/Group BMC
245.7759 707.0352 m
251.8257 713.5596 270.2754 721.1865 269.6191 730.373 c
S
246.0679 711.1821 m
251.6255 717.3047 268.4932 724.4541 267.9775 732.9287 c
S
246.3555 715.3291 m
251.4204 721.0498 266.7065 727.7217 266.332 735.4844 c
S
246.6436 719.4746 m
251.2163 724.7935 264.9209 730.9878 264.6865 738.0386 c
S
246.938 723.6172 m
251.0186 728.5342 263.1411 734.251 263.0474 740.5898 c
S
247.2271 727.7627 m
250.8154 732.2773 261.356 737.5166 261.4028 743.1436 c
S
247.5176 731.9014 m
250.6133 736.0146 259.5723 740.7773 259.7603 745.6924 c
S
247.8071 736.0439 m
250.4106 739.7559 257.7876 744.04 258.1162 748.2432 c
S
248.1025 740.1709 m
250.2139 743.4805 256.0088 747.2876 256.478 750.7788 c
S
248.394 744.3145 m
250.0132 747.2217 254.2266 750.5518 254.8359 753.3311 c
S
248.6934 748.4375 m
249.8198 750.9434 252.4517 753.7954 253.2021 755.8628 c
S
248.9932 752.5605 m
249.6274 754.6646 250.6772 757.0391 251.5684 758.3945 c
S
EMC
289.479 609.917 m
282.9595 595.2402 261.3672 569.373 245.126 563.5137 c
S
289.479 613.418 m
282.9595 598.7407 261.3672 572.874 245.126 567.0142 c
S
289.479 616.9189 m
282.9595 602.2422 261.3672 576.3755 245.126 570.5156 c
S
289.479 620.4199 m
282.9595 605.7427 261.3672 579.876 245.126 574.0161 c
S
289.479 623.9204 m
282.9595 609.2437 261.3672 583.377 245.126 577.5171 c
S
288.2358 625.1343 m
282.0483 611.2095 265.8838 588.5049 245.126 581.0176 c
S
287.6606 630.0303 m
281.1392 615.353 261.3672 590.3789 245.126 584.519 c
S
287.6606 633.5308 m
281.1392 618.8535 261.3672 593.8794 245.126 588.0195 c
S
287.6606 637.0313 m
281.1392 622.355 261.3672 597.3804 245.126 591.5205 c
S
287.6606 640.5327 m
281.1392 625.856 261.3672 600.8809 245.126 595.021 c
S
287.6606 644.0337 m
281.1392 629.3564 261.3672 604.3823 245.126 598.5225 c
S
287.6606 647.5342 m
281.1392 632.8574 261.3672 607.8828 245.126 602.0229 c
S
286.8623 650.5322 m
284.7363 645.748 275.2715 618.7173 245.126 605.5239 c
S
286.4883 652.9019 m
279.9688 638.2246 261.3672 614.8843 245.126 609.0244 c
S
286.4883 655.9478 m
279.9688 641.271 261.3672 618.3857 245.126 612.5259 c
S
285.3672 658.8677 m
278.8472 644.1904 261.3672 621.8862 245.126 616.0264 c
S
285.3672 662.3691 m
278.8472 647.6919 261.3672 625.3872 245.126 619.5273 c
S
285.3672 665.8696 m
278.8472 651.1924 261.3672 628.8887 245.126 623.0283 c
S
285.3672 669.3701 m
278.8472 654.6934 261.3672 632.3892 245.126 626.5293 c
S
284.6196 670.8403 m
278.0996 656.1636 261.3672 635.8896 245.126 630.0303 c
S
246.1118 525.3013 m
259.6382 539.8174 290.7915 555.9238 292.8154 576.3496 c
S
245.3638 527.6606 m
258.8901 542.1768 290.7915 559.4248 292.8154 579.8501 c
S
245.3638 531.1611 m
258.8901 545.6772 290.7915 562.9253 292.8154 583.3516 c
S
245.3638 534.6621 m
258.8901 549.1787 290.7915 566.4263 292.8154 586.8521 c
S
245.3638 538.1631 m
258.8901 552.6792 290.7915 569.9272 292.8154 590.353 c
S
245.3638 541.6641 m
258.8901 556.1802 290.7915 573.4282 292.8154 593.8535 c
S
245.3638 545.1646 m
258.8901 559.6807 290.7915 576.9287 292.8154 597.3545 c
S
245.3638 548.666 m
258.8901 563.1821 289.6963 580.1201 291.7222 600.5464 c
S
245.3638 552.1665 m
258.8901 566.6826 289.6963 583.6216 291.7222 604.0469 c
S
245.3638 555.6675 m
258.8901 570.1836 289.6963 587.1221 291.7222 607.5479 c
S
245.7383 560.1631 m
258.4487 569.6401 289.6963 590.623 291.7222 611.0483 c
S
246.1118 491.7817 m
271.0342 507.2671 281.2471 530.4312 295.3945 554.1768 c
S
246.1118 495.2822 m
271.0342 510.7681 281.2471 533.9326 295.3945 557.6772 c
S
246.1118 498.7837 m
271.0342 514.2686 281.2471 537.4331 295.3945 561.1787 c
S
246.1118 502.2842 m
271.0342 517.77 281.2471 540.9336 295.3945 564.6792 c
S
246.1118 505.7852 m
271.0342 521.2705 281.2471 544.4351 295.3945 568.1802 c
S
246.1118 509.2856 m
271.0342 524.7715 281.2471 547.936 295.3945 571.6812 c
S
246.1118 512.7871 m
271.0342 528.272 281.2471 551.4365 295.3945 575.1821 c
S
246.1118 516.2876 m
271.0342 531.7734 281.2471 554.9375 295.3945 578.6826 c
S
246.1118 519.7886 m
271.0342 535.2744 281.2471 558.438 295.3945 582.1836 c
S
245.8418 522.7866 m
265.4121 534.9458 282.3594 563.8057 295.3945 585.6846 c
S
249.6621 225.0352 m
282.646 241.3076 284.1226 259.2939 295.9697 277.3838 c
S
249.4849 228.5322 m
271.8091 235.1982 286.0562 268.627 297.9028 286.7197 c
S
249.3071 232.0283 m
271.6318 238.6953 286.7021 271.5479 298.5474 289.6367 c
S
249.1304 235.5264 m
271.4546 242.1934 287.458 276.7881 299.3042 294.877 c
S
248.9536 239.0244 m
271.2769 245.6914 287.2803 280.2822 299.1284 298.374 c
S
248.7759 242.5215 m
271.1006 249.1885 287.3433 283.8008 299.1914 301.8896 c
S
248.5981 246.0186 m
270.9229 252.6855 288.2358 287.3008 298.5474 307.7246 c
S
248.4214 249.5166 m
270.7456 256.1826 287.9893 296.0498 299.8364 314.1416 c
S
248.2446 253.0107 m
270.5679 259.6807 288.8115 300.7246 300.6582 318.8125 c
S
248.0669 256.5078 m
270.3916 263.1787 288.6348 304.2207 300.481 322.3105 c
S
247.8901 260.0059 m
270.2139 266.6758 289.168 307.7324 301.0132 325.8203 c
S
247.7124 263.5039 m
270.0361 270.1699 291.458 310.6416 301.1245 330.4814 c
S
247.5352 267.001 m
269.8594 273.667 291.458 315.8936 301.1245 334.5625 c
S
247.3579 270.4971 m
269.6826 277.1641 290.1006 320.5635 301.9468 338.6523 c
S
247.1812 273.9951 m
269.5049 280.6611 289.9229 324.0566 301.77 342.1494 c
S
247.0039 277.4932 m
269.3271 284.1592 289.7451 327.5547 301.5928 345.6465 c
S
246.8262 280.9902 m
269.0869 291.7285 288.7759 326.957 301.1245 349.7354 c
S
246.6489 284.4873 m
269.0869 298.3066 295.2378 336.4502 301.5327 352.6729 c
S
237.3921 368.6318 m
219.7656 375.7422 202.9951 395.6201 203.8799 414.1431 c
S
237.3921 372.1328 m
219.7656 379.2432 202.9951 399.1211 203.8799 417.6431 c
S
237.3921 375.6338 m
219.7656 382.7451 202.9951 402.6216 203.8799 421.1445 c
S
237.3921 379.1338 m
219.7656 386.2461 201.0581 406.9976 201.9424 425.5215 c
S
237.3921 382.6348 m
219.7656 389.7461 201.3726 412.1899 202.2573 430.7124 c
S
237.3921 386.1357 m
214.5869 395.3403 203.0078 413.3735 203.8799 431.646 c
S
237.3921 389.6377 m
214.5869 398.8403 203.0078 416.873 203.8799 435.1475 c
S
237.3921 393.1377 m
219.7656 400.249 202.9951 420.1245 203.8799 438.6489 c
S
238.5771 394.8164 m
215.7729 404.0171 200.0054 426.8979 200.8774 445.1694 c
S
238.5771 398.3164 m
220.9497 405.4287 199.9932 430.1475 200.8774 448.6704 c
S
238.5771 401.8174 m
220.9497 408.9297 199.9932 433.6475 200.8774 452.1719 c
S
238.5771 405.3188 m
220.9497 412.4302 199.9932 437.1489 200.8774 455.6719 c
S
238.5771 408.8203 m
220.9497 415.9326 199.9932 440.6499 200.8774 459.1724 c
S
238.5771 412.3213 m
220.9497 419.4326 199.9932 444.1514 200.8774 462.6733 c
S
238.5771 415.8203 m
220.9497 422.9326 199.9932 447.6514 200.8774 466.1748 c
S
238.5771 419.3218 m
220.9497 426.4341 199.9932 451.1519 200.8774 469.6758 c
S
238.5771 422.8232 m
220.9497 429.9355 199.9932 454.6528 200.8774 473.1772 c
S
240.0303 434.2197 m
220.1753 449.5679 202.3682 456.9536 199.7563 472.0454 c
S
240.1304 435.9995 m
222.6162 456.7295 202.3682 460.4546 199.7563 475.5454 c
S
240.1304 439.501 m
230.9326 450.3877 202.4326 466.519 200.1299 479.8193 c
S
240.1304 443.002 m
230.9326 453.8892 202.4326 470.019 200.1299 483.3198 c
S
240.1304 446.5034 m
230.9326 457.3901 202.4326 473.52 200.1299 486.8208 c
S
240.1304 450.0034 m
230.9326 460.8916 202.4326 477.021 200.1299 490.3223 c
S
240.1304 453.5039 m
230.9326 464.3916 202.4326 480.522 200.1299 493.8228 c
S
240.1304 457.0049 m
230.9326 467.8921 203.5542 483.79 201.2515 497.0908 c
S
240.1304 460.5063 m
230.9326 471.3931 203.5542 487.291 201.2515 500.5918 c
S
240.1304 464.0078 m
230.9326 474.8945 203.5542 490.7915 201.2515 504.0933 c
S
240.1304 467.5078 m
230.9326 478.395 203.5542 494.293 201.2515 507.5938 c
S
240.1304 471.0093 m
225.9292 487.8193 205.4434 495.4995 203.1211 508.9165 c
S
240.1304 474.5098 m
230.9326 485.3975 205.4238 499.1167 203.1211 512.4175 c
S
240.1304 478.0107 m
230.9326 488.8979 205.4238 502.6172 203.1211 515.918 c
S
240.1304 481.5112 m
230.9326 492.3984 205.4238 506.1187 203.1211 519.4194 c
S
240.1304 485.0127 m
230.9326 495.8994 205.4238 509.6191 203.1211 522.9199 c
S
240.1304 488.5132 m
230.9326 499.4009 205.4238 513.1201 203.1211 526.4209 c
S
240.1304 492.0142 m
230.9326 502.9014 205.4238 516.6206 203.1211 529.9224 c
S
240.1304 495.5151 m
230.9326 506.4023 205.4238 520.1221 203.1211 533.4229 c
S
205.1685 536.6724 m
206.0474 519.3047 228.4629 509.2568 240.5039 498.5615 c
S
205.1685 540.1733 m
206.0474 522.8057 228.4629 512.7578 240.5039 502.062 c
S
205.1685 543.6743 m
206.0474 526.3062 228.4629 516.2588 240.5039 505.563 c
S
205.1685 547.1753 m
206.0474 529.8076 228.4629 519.7593 240.5039 509.0635 c
S
205.1685 550.6758 m
206.0474 533.3086 228.4629 523.2603 240.5039 512.5645 c
S
205.1685 554.1768 m
206.0474 536.8091 228.4629 526.7617 240.5039 516.0654 c
S
206.6157 557.4243 m
207.4946 540.0537 228.4629 530.2622 240.5039 519.5664 c
S
206.1118 564.3306 m
206.9902 546.9595 228.4629 533.7627 240.5039 523.0669 c
S
206.1118 567.8315 m
206.9902 550.4604 228.4629 537.2637 240.5039 526.5684 c
S
206.1118 571.332 m
206.9902 553.9614 228.4629 540.7651 240.5039 530.0688 c
S
206.1118 574.8335 m
206.9902 557.4619 228.4629 544.2656 240.5039 533.5698 c
S
206.1118 578.334 m
206.9902 560.9634 228.4629 547.7666 240.5039 537.0703 c
S
207.6069 582.1631 m
208.3179 568.2759 224.2554 547.4453 239.9697 543.6743 c
S
207.6069 585.6641 m
208.3179 571.7773 224.2554 550.9458 239.9697 547.1753 c
S
207.6069 589.165 m
208.3179 575.2778 224.2554 554.4468 239.9697 550.6758 c
S
207.6069 592.666 m
208.3179 578.7783 224.2554 557.9478 239.9697 554.1768 c
S
207.6069 596.1665 m
208.3179 582.2793 224.2554 561.4487 239.9697 557.6772 c
S
207.6069 599.668 m
208.3179 585.7803 224.2554 564.9492 239.9697 561.1787 c
S
207.6069 603.1685 m
208.3179 589.2813 224.2554 568.4502 239.9697 564.6792 c
S
205.6738 607.2505 m
206.3843 593.3667 224.2554 571.9512 239.9697 568.1802 c
S
208.3911 607.2744 m
208.7114 601.0181 217.3975 577.0986 239.9697 571.6812 c
S
208.3911 610.7754 m
208.7114 604.519 217.3975 580.5991 239.9697 575.1821 c
S
208.3911 614.2759 m
209.1025 600.3887 224.2554 582.4536 239.9697 578.6826 c
S
208.3911 617.7773 m
209.1025 603.8901 224.2554 585.9551 239.9697 582.1836 c
S
208.3911 621.2778 m
209.1025 607.3906 224.2554 589.4556 239.9697 585.6846 c
S
210.3247 624.1938 m
211.019 610.6318 219.1157 594.1904 239.9697 589.1855 c
S
210.3247 627.6953 m
211.019 614.1323 219.1157 597.6914 239.9697 592.686 c
S
210.3247 631.1958 m
206.4951 620.7583 218.9922 601.2231 239.9697 596.187 c
S
210.3247 634.6968 m
211.0356 620.813 224.2554 603.459 239.9697 599.6885 c
S
210.3247 638.1978 m
211.0356 624.314 224.2554 606.96 239.9697 603.189 c
S
210.3247 641.6987 m
211.0356 627.8145 224.2554 610.4604 239.9697 606.6895 c
S
210.3247 645.1992 m
211.0356 631.3154 224.2554 613.9619 239.9697 610.1904 c
S
210.3247 648.7002 m
211.0356 634.8164 224.2554 617.4624 239.9697 613.6919 c
S
210.3247 652.2007 m
211.0356 638.3174 224.2554 620.9634 239.9697 617.1924 c
S
210.3247 655.7021 m
211.0356 641.8179 224.2554 624.4639 239.9697 620.6934 c
S
210.3247 659.2026 m
211.0356 645.3188 224.2554 627.9653 239.9697 624.1938 c
S
212.0933 661.7017 m
212.9814 644.3413 229.2329 630.2725 239.9697 627.6953 c
S
212.2583 664.4541 m
212.9692 650.5703 224.2554 634.9668 239.9697 631.1958 c
S
212.9023 669.7056 m
214.7847 667.1211 214.4111 660.9668 217.3174 652.2061 c
220.0298 644.0264 232.7231 636.3687 241.2593 633.5308 c
S
216.7686 673.2061 m
220.478 668.1123 217.2593 661.7119 219.2505 655.707 c
221.9629 647.5278 232.7231 639.8696 241.2593 637.0313 c
S
216.7686 676.707 m
220.478 671.6133 217.2593 665.2134 219.2505 659.2075 c
221.9629 651.0283 232.7231 643.3701 241.2593 640.5327 c
S
216.7686 678.4575 m
220.478 673.3633 217.2593 666.9634 219.2505 660.958 c
221.9629 652.7788 232.7231 645.1206 241.2593 642.2827 c
S
214.1919 682.543 m
214.0322 668.981 236.6597 654.584 241.5806 651.5444 c
S
214.1919 686.0439 m
214.0503 673.9551 231.8076 660.1855 241.9033 653.9512 c
S
217.2578 687.2319 m
217.1162 675.1445 232.9404 663.124 243.0361 656.8916 c
S
217.2578 690.7329 m
217.1162 678.6455 232.9404 666.625 243.0361 660.3926 c
S
219.3472 694.2119 m
219.2056 682.124 232.9404 670.1255 243.0361 663.8936 c
S
219.3472 697.7124 m
219.2056 685.6255 232.9404 673.627 243.0361 667.3945 c
S
219.3472 701.2134 m
219.2056 689.126 232.9404 677.1279 243.0361 670.895 c
S
219.3472 704.7139 m
219.2056 692.627 232.9404 680.6284 243.0361 674.3965 c
S
220.7974 706.9019 m
220.6558 694.8149 232.9404 684.1289 243.0361 677.897 c
S
220.7974 710.4033 m
220.6558 698.3154 232.9404 687.6304 243.0361 681.3979 c
S
221.7642 713.6851 m
221.6587 704.7588 238.0605 687.9688 243.0361 684.8984 c
S
222.4888 716.748 m
222.3198 702.2847 240.168 690.1704 243.0361 688.3994 c
S
228.7725 725.5005 m
228.9932 727.376 226.4858 713.7192 244.3257 697.251 c
S
228.5308 730.5327 m
227.457 721.4082 237.6494 706.9141 244.3257 700.7515 c
S
230.8721 731.0933 m
229.7983 721.9668 238.3745 710.415 245.0503 704.2524 c
S
230.8721 734.5947 m
229.7983 725.4683 238.3745 713.916 245.0503 707.7534 c
S
230.8721 738.0952 m
229.7983 728.9688 238.3745 717.4165 245.0503 711.2544 c
S
231.8115 738.9482 m
230.7378 729.8218 238.3745 720.918 245.0503 714.7549 c
S
234.5518 743.6445 m
233.4785 734.5176 239.5825 727.2627 246.2588 721.1006 c
S
243.5137 691.1484 m
234.8145 695.9619 223.8145 712.9155 224.0562 719.9175 c
S
243.8613 693.7124 m
233.5664 698.5532 223.8369 718.6865 224.8037 722.6255 c
S
246.2813 727.3501 m
240.3721 729.3071 235.8442 737.4941 235.7813 743.2236 c
S
247.0063 730.1943 m
241.0972 732.1514 236.811 740.5566 236.7476 746.2871 c
S
247.0063 733.4766 m
239.8623 735.8423 238.0156 745.8252 237.9834 748.646 c
S
248.2148 736.1021 m
242.3057 738.0596 239.2539 745.542 239.1914 751.2715 c
S
247.7314 740.478 m
242.3057 743.2236 241.5806 746.2871 239.8887 752.1943 c
S
247.9731 747.188 m
244.9805 749.5347 243.9971 751.7573 242.7891 755.2578 c
S
248.1055 750.6631 m
246.3608 751.9189 244.8862 754.2031 244.2388 756.499 c
S
246.0439 717.4785 m
239.269 723.6938 234.0522 731.8491 231.8936 740.1436 c
S
243.5137 695.7427 m
232.6392 704.9326 224.8262 718.1914 225.5513 724.3174 c
S
246.1118 687.0864 m
251.3682 689.9141 273.0283 701.3018 276.7666 714.1636 c
S
245.7383 690.1328 m
250.9941 692.9604 271.9067 704.0098 275.645 716.8716 c
S
245.7383 680.9941 m
250.9941 683.8218 271.9067 695.2578 275.645 708.1191 c
S
246.5083 702.7754 m
251.7646 705.605 267.7939 714.8408 271.5332 727.7021 c
S
246.4858 699.2715 m
251.7422 702.0986 268.916 712.1328 272.6543 724.9946 c
S
245.3638 694.8711 m
250.6201 697.6982 269.29 710.1021 273.0283 722.9639 c
S
241.6255 644.4404 m
235.1836 646.0166 211.3042 660.2729 215.4575 668.8096 c
S
241.6255 649.5171 m
235.1836 651.0938 212.8408 668.8096 213.5884 674.9019 c
S
241.999 646.4712 m
235.5571 648.0474 213.9619 665.4253 213.2144 672.5327 c
S
282.0005 681.3325 m
282.563 672.499 266.3633 657.271 259.9438 652.9019 c
254.0508 648.8867 251.3452 648.502 244.6162 644.1016 c
S
282.374 677.6099 m
282.937 668.7754 266.7368 653.5479 260.3174 649.1787 c
254.4253 645.1631 251.7192 644.7788 244.9897 640.3789 c
S
281.6265 684.3789 m
282.189 675.5449 265.9893 660.3174 259.5698 655.9478 c
253.6772 651.9326 250.9717 651.5483 244.2422 647.1479 c
S
283.8711 673.8867 m
281.6284 667.4556 266.7368 649.8252 260.3174 645.4561 c
254.4253 641.4404 251.7192 641.0557 244.9897 636.6563 c
S
283.8711 672.1943 m
280.8789 663.7329 266.7368 646.7788 260.3174 642.4092 c
254.4253 638.394 251.7192 638.0098 244.9897 633.6094 c
S
246.4858 488.0688 m
249.1025 489.4224 251.8022 491.2178 254.5098 493.5371 c
261.8965 499.8687 268.1987 506.1353 274.5239 513.4536 c
281.2529 521.2402 284.6196 528.0093 288.7314 536.8091 c
289.543 538.5459 294.5332 549.6982 295.4604 551.3628 c
S
204.1943 460.9668 m
208.5264 450.5781 224.0493 439.9219 228.8921 435.5371 c
233.4868 431.376 238.6992 429.2598 238.0938 429.3984 c
S
204.1943 458.7739 m
208.5264 448.3843 216.5952 442.9312 226.9556 433.7832 c
229.27 431.7388 235.3945 427.5024 238.5771 426.7676 c
S
200.8042 465.3506 m
205.1362 454.9629 221.6279 445.6211 225.9868 441.6753 c
228.2729 439.6055 236.6401 433.7832 239.5459 431.5923 c
S
207.6777 206.7813 m
218.6338 182.8604 227.6553 181.1094 241.7319 172.1045 c
S
206.3882 210.8662 m
221.2114 185.1914 221.2114 187.5254 241.5317 175.5986 c
S
204.0566 223.6904 m
208.854 205.1035 221.7129 188.2246 241.3335 179.0967 c
S
202.2344 231.0215 m
209.4375 203.1123 223.4365 190.8262 241.1338 182.5938 c
S
202.0352 234.5146 m
209.2402 206.6035 223.2324 194.3242 240.9355 186.0869 c
S
201.8359 238.0127 m
206.6323 219.4248 221.1143 198.7129 240.7354 189.585 c
S
201.6367 241.5107 m
206.4336 222.9219 220.9165 202.207 240.5352 193.082 c
S
201.4365 245.0029 m
206.2344 226.416 220.7163 205.7051 240.3369 196.5771 c
S
201.2373 248.501 m
206.0352 229.9131 220.5176 209.1982 240.1367 200.0742 c
S
201.0381 251.9951 m
205.8359 233.4102 220.3174 212.6953 239.9385 203.5674 c
S
200.8394 255.4932 m
205.6367 236.9053 220.1191 216.1934 239.7383 207.0654 c
S
199.2993 255.793 m
204.0962 237.2051 219.9189 219.6875 239.5405 210.5625 c
S
239.2744 215.2217 m
221.2656 221.5029 205.7441 233.0381 199.9438 252.293 c
S
239.0742 218.7197 m
221.0654 225 207.0327 237.123 199.2993 255.793 c
S
238.8755 222.2139 m
220.8667 228.4941 202.5225 245.291 198.0107 263.3799 c
S
238.6753 225.7119 m
220.6665 231.9922 202.5215 248.793 198.0107 268.0459 c
S
238.4771 229.2051 m
220.4683 235.4893 200.5879 254.043 196.7212 273.2969 c
S
238.2769 232.7021 m
216.7002 242.375 203.1665 255.209 196.7212 273.2969 c
S
253.4346 172.9385 m
264.146 179.9541 288.8936 195.8818 287.5913 210.2832 c
S
253.4346 176.4385 m
264.146 183.4541 288.8936 199.3828 287.5913 213.7832 c
S
253.4346 179.9404 m
264.146 186.9551 286.3022 204.4473 289.5244 217.2832 c
S
253.4346 183.4414 m
264.146 190.457 287.5913 210.2832 290.814 221.3701 c
S
253.4346 186.9424 m
259.2793 190.7715 288.606 213.0723 287.5913 224.2861 c
S
251.5015 190.4424 m
262.2124 197.458 292.7607 216.3018 291.458 230.7031 c
S
251.5015 193.9434 m
262.2124 200.958 292.7607 219.8037 291.458 234.2041 c
S
251.5015 197.4443 m
262.2124 204.46 292.7607 223.3047 291.458 237.7041 c
S
249.5679 200.9453 m
260.2788 207.9609 292.7607 226.8057 291.458 241.2051 c
S
249.5679 204.4473 m
260.2788 211.4619 292.7607 230.3057 291.458 244.7061 c
S
249.5679 207.9473 m
260.2788 214.9629 286.9473 237.123 292.1025 249.957 c
S
249.5679 211.4482 m
260.2788 218.4639 294.0498 244.8906 292.7476 259.2939 c
S
292.7476 261.6289 m
289.3364 251.6846 279.1172 239.9434 270.835 232.4531 c
265.3335 227.4795 257.9463 220.2002 250.2124 216.1182 c
S
249.5679 223.1191 m
260.0381 223.6357 273.1831 238.2246 279.373 245.291 c
286.3604 253.2666 290.9419 265.5889 295.3247 274.4678 c
S
250.2124 219.0352 m
268.2568 227.7871 288.8809 254.6279 294.6812 269.7969 c
S
EMC
EMC
/Layer<</Title (Bird)/Visible true /Preview true /Editable true /Printed true /Dimmed false /Color [20224 32768 65535 ]>> BDC
0 0 0 rg
188.5664 612.0171 m
188.1719 611.7202 187.9087 611.6685 187.7261 611.2256 c
188.3506 610.312 189.6548 607.1743 190.8643 607.7222 c
193.2632 608.8081 188.936 611.252 188.5664 611.6211 c
188.5664 612.0171 l
h
f
125.2197 640.9194 m
130.6528 641.4141 130.3472 645.5439 132.3462 649.6294 c
133.5171 652.022 134.8687 654.8364 137.0767 656.4478 c
138.2715 657.3203 143.4058 659.022 143.7769 660.3193 c
144.709 663.5767 140.5791 661.2861 139.8687 660.7153 c
137.6157 658.9043 132.5659 653.4639 130.7666 651.1509 c
129.1777 649.1089 126.21 641.2412 124.8237 641.7109 c
125.2197 640.9194 l
h
n
157.6851 657.1519 m
159.8765 657.5156 165.0845 657.6309 166.7031 659.0815 c
167.2603 658.147 167.1641 657.4395 166.7222 656.4199 c
163.8652 655.9756 160.1162 656.6992 157.6772 655.7549 c
157.04 655.7998 157.3994 655.6768 157.6851 655.9644 c
157.6851 657.1519 l
h
f
160.1602 648.5205 m
160.9609 646.9507 163.5894 647.1606 164.4141 645.5811 c
165.5098 643.4824 163.6899 641.8965 163.3262 639.7314 c
162.8452 636.8711 164.4346 636.8232 164.5728 634.6738 c
167.3076 632.6797 172.7212 633.2739 175.8369 633.061 c
178.2725 635.3765 180.9409 638.3911 180.9839 642.8379 c
178.8623 642.4409 175.9175 641.6182 173.9785 642.978 c
174.6807 644.1299 177.4751 648.665 175.0254 649.9541 c
174.9121 650.0137 167.5049 645.0186 169.9189 649.9639 c
168.2202 650.0464 166.5996 648.6123 165.5063 647.3154 c
165.0073 646.7236 163.8843 649.5688 165.186 650.8003 c
163.668 652.6367 158.6733 651.4351 160.1602 648.5205 c
h
f
177.5308 632.2993 m
177.7217 632.1333 177.9404 632.0239 178.187 631.9707 c
179.3428 633.3228 180.9697 632.7705 182.5669 632.665 c
183.1123 632.6289 181.0254 636.6665 180.8833 636.9321 c
179.5566 635.6284 178.6772 633.8618 177.5308 632.2993 c
h
f
130.3667 632.209 m
128.6284 630.584 130.7549 627.0791 132.791 629.4282 c
132.2144 630.5151 131.5596 631.6465 130.6836 632.5557 c
130.3804 632.6221 130.1431 632.5063 129.9707 632.209 c
130.3667 632.209 l
h
f
/PointText<</Matrix [1 0 0 1 59.7051 578.7651 ]/Vertical false >> BDC
/Pgf BMC
EMC
EMC
/Group BMC
/Group BMC
/Clip BMC
q
314.667 317 m
314.7783 316.8887 314.8887 316.7783 315 316.667 c
W n
1 1 1 rg
316.5 317.2891 m
313.5674 318.5 l
316.5 318.5 l
316.5 317.2891 l
h
f
316.5 317.2158 m
313.3887 318.5 l
313.5674 318.5 l
316.5 317.2891 l
316.5 317.2158 l
h
f
0.9804 0.9725 0.9686 rg
316.5 317.1416 m
313.2109 318.5 l
313.3887 318.5 l
316.5 317.2158 l
316.5 317.1416 l
h
f
0.9569 0.9451 0.9373 rg
316.5 317.0684 m
313.167 318.4453 l
313.167 318.5 l
313.2109 318.5 l
316.5 317.1416 l
316.5 317.0684 l
h
f
0.9294 0.9176 0.9059 rg
316.5 316.9951 m
313.167 318.3711 l
313.167 318.4453 l
316.5 317.0684 l
316.5 316.9951 l
h
f
0.9059 0.8863 0.8706 rg
316.5 316.9209 m
313.167 318.2979 l
313.167 318.3711 l
316.5 316.9951 l
316.5 316.9209 l
h
f
0.8824 0.8588 0.8392 rg
316.5 316.8486 m
313.167 318.2246 l
313.167 318.2979 l
316.5 316.9209 l
316.5 316.8486 l
h
f
0.8588 0.8314 0.8078 rg
316.5 316.7754 m
313.167 318.1504 l
313.167 318.2246 l
316.5 316.8486 l
316.5 316.7754 l
h
f
0.8314 0.8 0.7765 rg
316.5 316.7021 m
313.167 318.0771 l
313.167 318.1504 l
316.5 316.7754 l
316.5 316.7021 l
h
f
0.8039 0.7686 0.7451 rg
316.5 316.6279 m
313.167 318.0039 l
313.167 318.0771 l
316.5 316.7021 l
316.5 316.6279 l
h
f
0.7765 0.7373 0.7137 rg
316.5 316.5547 m
313.167 317.9307 l
313.167 318.0039 l
316.5 316.6279 l
316.5 316.5547 l
h
f
0.7529 0.7098 0.6863 rg
316.5 316.4814 m
313.167 317.8564 l
313.167 317.9307 l
316.5 316.5547 l
316.5 316.4814 l
h
f
0.7255 0.6784 0.6588 rg
316.5 316.4072 m
313.167 317.7832 l
313.167 317.8564 l
316.5 316.4814 l
316.5 316.4072 l
h
f
0.698 0.651 0.6275 rg
316.5 316.334 m
313.167 317.71 l
313.167 317.7832 l
316.5 316.4072 l
316.5 316.334 l
h
f
0.6745 0.6235 0.6039 rg
316.5 316.2607 m
313.167 317.6357 l
313.167 317.71 l
316.5 316.334 l
316.5 316.2607 l
h
f
0.651 0.5961 0.5765 rg
316.5 316.1865 m
313.167 317.5625 l
313.167 317.6357 l
316.5 316.2607 l
316.5 316.1865 l
h
f
0.6235 0.5686 0.549 rg
316.5 316.1133 m
313.167 317.4893 l
313.167 317.5625 l
316.5 316.1865 l
316.5 316.1133 l
h
f
0.5961 0.5373 0.5255 rg
316.5 316.04 m
313.167 317.415 l
313.167 317.4893 l
316.5 316.1133 l
316.5 316.04 l
h
f
0.5686 0.5098 0.502 rg
316.5 315.9658 m
313.167 317.3418 l
313.167 317.415 l
316.5 316.04 l
316.5 315.9658 l
h
f
0.5451 0.4823 0.4784 rg
316.5 315.8926 m
313.167 317.2686 l
313.167 317.3418 l
316.5 315.9658 l
316.5 315.8926 l
h
f
0.5216 0.4588 0.4549 rg
316.5 315.8193 m
313.167 317.1943 l
313.167 317.2686 l
316.5 315.8926 l
316.5 315.8193 l
h
f
0.4941 0.4314 0.4353 rg
316.5 315.7451 m
313.167 317.1211 l
313.167 317.1943 l
316.5 315.8193 l
316.5 315.7451 l
h
f
0.4667 0.4039 0.4078 rg
316.5 315.6719 m
313.167 317.0479 l
313.167 317.1211 l
316.5 315.7451 l
316.5 315.6719 l
h
f
0.4392 0.3765 0.3882 rg
316.5 315.5986 m
313.167 316.9746 l
313.167 317.0479 l
316.5 315.6719 l
316.5 315.5986 l
h
f
0.4118 0.3529 0.3686 rg
316.5 315.5254 m
313.167 316.9004 l
313.167 316.9746 l
316.5 315.5986 l
316.5 315.5254 l
h
f
0.3882 0.3294 0.349 rg
316.5 315.4512 m
313.167 316.8271 l
313.167 316.9004 l
316.5 315.5254 l
316.5 315.4512 l
h
f
0.3608 0.3059 0.3294 rg
316.5 315.3779 m
313.167 316.7539 l
313.167 316.8271 l
316.5 315.4512 l
316.5 315.3779 l
h
f
0.3333 0.2823 0.3098 rg
316.5 315.3047 m
313.167 316.6797 l
313.167 316.7539 l
316.5 315.3779 l
316.5 315.3047 l
h
f
0.302 0.2588 0.2902 rg
316.5 315.2314 m
313.167 316.6074 l
313.167 316.6797 l
316.5 315.3047 l
316.5 315.2314 l
h
f
313.167 316.6074 m
316.5 315.2314 l
316.5 315.167 l
313.167 315.167 l
313.167 316.6074 l
h
f
EMC
Q 
0.302 0.2588 0.2902 RG
0.25 w 
314.667 317 m
314.7783 316.8887 314.8887 316.7783 315 316.667 c
S
EMC
EMC
EMC
/Layer<</Title (Muscles)/Visible true /Preview true /Editable true /Printed true /Dimmed false /Color [20224 20224 65535 ]>> BDC
EMC
/Layer<</Title (Text / Diagrams)/Visible true /Preview true /Editable true /Printed true /Dimmed false /Color [20224 65535 65535 ]>> BDC
EMC

