<?xml version="1.0" encoding="UTF-8"?>
<svg width="24px" height="10px" viewBox="-10 -15 51 49" version="1.1" xmlns="http://www.w3.org/2000/svg" xmlns:xlink="http://www.w3.org/1999/xlink">
    <!-- Generator: Sketch 52.6 (67491) - http://www.bohemiancoding.com/sketch -->
    <title>Triangle</title>
    <desc>Created with Sketch.</desc>
    <g stroke="none" stroke-width="1" fill="none" fill-rule="evenodd">
        <g transform="translate(0.000000, -3.000000)" fill="#000000">
            <polygon transform="translate(12.000000, 12.000000) scale(1, -1) translate(-12.000000, -12.000000) " points="12 3 24 21 0 21"></polygon>
        </g>
    </g>
</svg>