<svg xmlns="http://www.w3.org/2000/svg" width="24" height="24" viewBox="0 0 24 24">
  <path d="m0 0h24v24h-24z" fill="none"/>
  <path d="m21 6h-2v9h-13v2c0 .55.45 1 1 1h11l4 4v-15c0-.55-.45-1-1-1zm-4 6v-9c0-.55-.45-1-1-1h-13c-.55 0-1 .45-1 1v14l4-4h10c.55 0 1-.45 1-1z"/>
</svg>