<svg xmlns="http://www.w3.org/2000/svg" width="24" height="24" viewBox="0 0 24 24">
  <path d="m0 0h24v24h-24z" fill="none"/>
  <path d="m14.3076923 14.3214286h-4.62417582l-.87912088 2.6785714h-2.8043956l4.7648352-13h2.443956l4.7912088 13h-2.8043956zm-3.9120879-2.1696429h3.2l-1.6087912-4.86607141zm-5.3956044 6.3482143h14v2h-14z"/>
</svg>
