<svg xmlns="http://www.w3.org/2000/svg" width="24" height="24" viewBox="0 0 24 24">
  <path d="m0 0h24v24h-24z" fill="none"/>
  <path d="m17 5v-3l4 4-4 4v-3h-4v-2zm-10 2v3l-4-4 4-4v3h4v2zm-2 5h10l6 6v4.0010986l-17.9950284-.0010986.0050284-8c0-1.1.89-2 1.99-2zm0 2v8h14v-3l-5-5z"/>
</svg>