<svg xmlns="http://www.w3.org/2000/svg" width="24" height="24" viewBox="0 0 24 24">
  <path d="m0 0h24v24h-24z" fill="none"/>
  <path d="m5 21.3703923c3.79666787-1.4187361 6.5-5.0788657 6.5-9.3703923 0-4.29152662-2.70333213-7.95165619-6.5-9.37039231 1.08933646-.40706247 2.26867912-.62960769 3.5-.62960769 5.5228475 0 10 4.4771525 10 10s-4.4771525 10-10 10c-1.23132088 0-2.41066354-.2225452-3.5-.6296077z"/>
</svg>