<svg xmlns="http://www.w3.org/2000/svg" width="24" height="24" viewBox="0 0 24 24">
  <path d="m0 0h24v24h-24z" fill="none"/>
  <path d="m23 5.5v14.5c0 2.2-1.8 4-4 4h-7.3c-1.08 0-2.1-.43-2.85-1.19l-7.85-7.98s1.26-1.23 1.3-1.25c.22-.19.49-.29.79-.29.22 0 .42.06.6.16.04.01 4.31 2.46 4.31 2.46v-11.91c0-.83.67-1.5 1.5-1.5s1.5.67 1.5 1.5v7h1v-9.5c0-.83.67-1.5 1.5-1.5s1.5.67 1.5 1.5v9.5h1v-8.5c0-.83.67-1.5 1.5-1.5s1.5.67 1.5 1.5v8.5h1v-5.5c0-.83.67-1.5 1.5-1.5s1.5.67 1.5 1.5z"/>
</svg>