<svg xmlns="http://www.w3.org/2000/svg" width="24" height="24" viewBox="0 0 24 24">
  <path d="m0 0h24v24h-24z" fill="none"/>
  <path d="m4 19h12v-2h-12zm0-4h16v-2h-16zm0-4h16v-2h-16zm0-4h16v-2h-16z"/>
</svg>