<svg xmlns="http://www.w3.org/2000/svg" viewBox="0 0 24 24">
    <defs>
        <style>.cls-1{fill:#abb0c4;}</style>
    </defs>
    <title>icon - tool - comment - line</title>
    <path class="cls-1" d="M20,2.46H4a2,2,0,0,0-2,2v10a2,2,0,0,0,2,2H7v5.08l6.35-5.08H20a2,2,0,0,0,2-2v-10A2,2,0,0,0,20,2.46Zm0,12H12.65L9,17.38V14.46H4v-10H20Z" />
    <path fill="default" class="cls-1" d="M18,8.46H6v-2H18Zm-2.5,4H6v-2h9.5Z" />
</svg>