<?xml version="1.0" encoding="UTF-8"?>
<svg width="14px" height="14px" viewBox="0 0 14 14" version="1.1" xmlns="http://www.w3.org/2000/svg" xmlns:xlink="http://www.w3.org/1999/xlink">
    <!-- Generator: sketchtool 58 (101010) - https://sketch.com -->
    <title>EF44018F-E8B9-4109-95A7-704C5097B3EF@1.00x</title>
    <desc>Created with sketchtool.</desc>
    <defs>
        <filter x="-12.5%" y="-5.3%" width="123.6%" height="110.0%" filterUnits="objectBoundingBox" id="filter-1">
            <feOffset dx="2" dy="2" in="SourceAlpha" result="shadowOffsetOuter1"></feOffset>
            <feGaussianBlur stdDeviation="1" in="shadowOffsetOuter1" result="shadowBlurOuter1"></feGaussianBlur>
            <feColorMatrix values="0 0 0 0 0.775560462   0 0 0 0 0.775560462   0 0 0 0 0.775560462  0 0 0 0.5 0" type="matrix" in="shadowBlurOuter1" result="shadowMatrixOuter1"></feColorMatrix>
            <feMerge>
                <feMergeNode in="shadowMatrixOuter1"></feMergeNode>
                <feMergeNode in="SourceGraphic"></feMergeNode>
            </feMerge>
        </filter>
    </defs>
    <g id="Page-1" stroke="none" stroke-width="1" fill="none" fill-rule="evenodd">
        <g id="D---nudge-diff-tool" transform="translate(-535.000000, -484.000000)">
            <g id="wv-/--menu-/-detach-/-Nudge-Copy" filter="url(#filter-1)" transform="translate(488.000000, 340.000000)">
                <g id="Buttons_palette" transform="translate(8.000000, 23.000000)">
                    <g id="size_increase" transform="translate(32.000000, 114.000000)">
                        <g id="padding"></g>
                        <polygon id="Shape" fill="#8C8C8C" points="17 13 13 13 13 17 11 17 11 13 7 13 7 11 11 11 11 7 13 7 13 11 17 11"></polygon>
                    </g>
                </g>
            </g>
        </g>
    </g>
</svg>