<svg xmlns="http://www.w3.org/2000/svg" width="24" height="24" viewBox="0 0 24 24">
  <path d="m0 0h24v24h-24z" fill="none"/>
  <path d="m9.52134855 16-.71695295 3h-2.8043956l1.02103611-3zm-1.13893097-4 2.38241762-7h2.443956l2.3956044 7h-2.3895877l-1.2279947-3.71428571-1.2145741 3.71428571zm8.59089482 4 1.0266876 3h-2.8043956l-.7241225-3zm-11.9733124-3h14v2h-14z"/>
</svg>
