<svg xmlns="http://www.w3.org/2000/svg" width="24" height="24" viewBox="0 0 24 24">
  <path d="m0 0h24v24h-24z" fill="none"/>
  <path d="m10.0940522 17.9587003-3.74999998-3.75 9.91620028-9.9162003c.39-.39 1.02-.39 1.41 0l2.34 2.34c.39.39.39 1.02 0 1.41zm-1.06066015 1.0606602-.98298815.9829881h-5.02538467c-.56610249 0-1.02501923-.4589167-1.02501923-1.0250192 0-.2718674.10800496-.5325985.30025253-.7248294l2.98313952-2.9831395zm3.26686045-1.0193605h9v2h-11z"/>
</svg>