<svg xmlns="http://www.w3.org/2000/svg" width="24" height="24" viewBox="0 0 24 24">
  <path d="m0 0h24v24h-24z" fill="none"/>
  <path d="m16 12.5v5h-2v-5h-8.5c-.82842712 0-1.5-.6715729-1.5-1.5v-7c0-.82842712.67157288-1.5 1.5-1.5h13c.8284271 0 1.5.67157288 1.5 1.5v7c0 .8284271-.6715729 1.5-1.5 1.5zm-6.97914442 5.0009132h6.97914442v1.9999808h-6.82261926l1.75017416 1.7501741-1.41421359 1.4142136-4.24264068-4.2426407 4.24264068-4.2426407 1.41421359 1.4142136z"/>
</svg>