<svg xmlns="http://www.w3.org/2000/svg" width="24" height="24" viewBox="0 0 24 24">
  <path d="m0 0h24v24h-24z" fill="none"/>
  <path d="m3 13v-2h14v2zm4 4v-2h14v2zm0 4v-2h14v2zm0-14h14v2h-14zm-4-4h14v2h-14z"/>
</svg>