<svg xmlns="http://www.w3.org/2000/svg" width="24" height="24" viewBox="0 0 24 24">
  <path d="m0 0h24v24h-24z" fill="none"/>
  <path d="m17 3h-10c-1.1 0-1.99.9-1.99 2l-.01 16 7-5 7 5v-16c0-1.1-.9-2-2-2z"/>
</svg>