<svg xmlns="http://www.w3.org/2000/svg" width="24" height="24" viewBox="0 0 24 24">
  <path d="m0 0h24v24h-24z" fill="none"/>
  <path d="m18 18v-3h2v3h3v2h-3v3h-2v-3h-3v-2zm-14 2v-2h2v2zm0-3.5v-2h2v2zm0-3.5v-2h2v2zm0-3.5v-2h2v2zm0-3.5v-2h2v2zm3.5 0v-2h2v2zm3.5 0v-2h2v2zm0 14v-2h2v2zm3.5-14v-2h2v2zm3.5 0v-2h2v2zm0 7v-2h2v2zm0-3.5v-2h2v2zm-10.5 10.5v-2h2v2z"/>
</svg>