<svg xmlns="http://www.w3.org/2000/svg" width="24" height="24" viewBox="0 0 24 24">
  <path d="m0 0h24v24h-24z" fill="none"/>
  <path d="m21 4c1.1 0 2 .9 2 2v13c0 1.1-.9 2-2 2h-18c-1.1 0-2-.9-2-2v-13c0-1.1.9-2 2-2zm0 15v-13h-12v13zm-18-8.5v1.5h4v-1.5zm0-2.5v1.5h4v-1.5zm0 5v1.5h4v-1.5zm0 2.5v1.5h4v-1.5z"/>
</svg>