<svg xmlns="http://www.w3.org/2000/svg" width="24" height="24" viewBox="0 0 24 24">
  <path d="m0 0h24v24h-24z" fill="none"/>
  <path d="m14 17h2v2h-7v-2h2v-9h-3v2h-2v-2-3h13v3 2h-2v-2h-3z"/>
</svg>
