<svg xmlns="http://www.w3.org/2000/svg" width="24" height="24" viewBox="0 0 24 24">
  <path d="m0 0h24v24h-24z" fill="none"/>
  <path d="m19.35 10.04c-.68-3.45-3.71-6.04-7.35-6.04-2.89 0-5.4 1.64-6.65 4.04-3.01.32-5.35 2.87-5.35 5.96 0 3.31 2.69 6 6 6h13c2.76 0 5-2.24 5-5 0-2.64-2.05-4.78-4.65-4.96zm-.35 7.96h-13c-2.21 0-4-1.79-4-4s1.79-4 4-4h.71c.66-2.31 2.77-4 5.29-4 3.04 0 5.5 2.46 5.5 5.5v.5h1.5c1.66 0 3 1.34 3 3s-1.34 3-3 3z"/>
</svg>