<?xml version="1.0" encoding="utf-8"?>
<svg version="1.1" id="Layer_1" xmlns="http://www.w3.org/2000/svg" xmlns:xlink="http://www.w3.org/1999/xlink" x="0px" y="0px"
	 viewBox="0 0 24 24" style="enable-background:new 0 0 24 24;" xml:space="preserve">
<style type="text/css">
	.st0{fill:#ABB0C4;}
</style>
<title>icon - attachment</title>
<g id="icon">
	<path class="st0" d="M5,7L5,7v8c0,3.9,3.2,7,7.1,6.9c1.8,0,3.6-0.7,4.9-2c1.3-1.3,2.1-3.1,2.1-4.9V7h-2v8c0,2.8-2.2,5-5,5
		s-5-2.2-5-5V7l0,0c0-0.8,0.3-1.6,0.9-2.1c1.2-1.2,3.1-1.2,4.2,0C12.7,5.4,13,6.2,13,7v8c0,0.6-0.4,1-1,1c-0.3,0-0.5-0.1-0.7-0.3
		C11.1,15.5,11,15.3,11,15V7H9v8c0,1.7,1.4,3,3,3c0.8,0,1.5-0.3,2.1-0.9c0.6-0.6,0.9-1.3,0.9-2.1V7c0-2.8-2.2-5-5-5S5,4.2,5,7z"/>
</g>
</svg>
