<svg xmlns="http://www.w3.org/2000/svg" width="24" height="24" viewBox="0 0 24 24">
  <path d="m0 0h24v24h-24z" fill="none"/>
  <path d="m6 2h12c1.1000004 0 2 .9000001 2 2v16c0 1.1-.9 2-2 2h-12.01c-1.1 0-1.99-.9-1.99-2v-16c0-1.1.9-2 2-2zm1 15v1.5h10v-1.5zm0-4v1.5h10v-1.5zm7-4v1.5h3v-1.5zm0-3.5v1.5h3v-1.5zm-7 0v5h4.5v-5z"/>
</svg>