<svg xmlns="http://www.w3.org/2000/svg" width="24" height="24" viewBox="0 0 24 24">
  <path d="m0 0h24v24h-24z" fill="none"/>
  <path d="m6 2c-1.1 0-1.99.9-1.99 2l-.01 16c0 1.1.89 2 1.99 2h12.01c1.1 0 2-.9 2-2v-12l-6-6zm7 7v-5.5l5.5 5.5z"/>
</svg>