<svg xmlns="http://www.w3.org/2000/svg" width="24" height="24" viewBox="0 0 24 24">
  <path d="m0 0h24v24h-24z" fill="none"/>
  <path d="m22 20.7c-4.8 0-9.7 0-14.5 0-.2 0-.3 0-.4-.2-1.7-1.7-3.3-3.3-5-5 0 0-.1-.1-.1-.1l.2-.2c4-4 7.9-7.9 11.9-11.9.1-.1.2-.1.4 0 2.5 2.5 4.9 4.9 7.4 7.4 0 0 .1.1.2.1-2.7 2.7-5.4 5.4-8.1 8.1h8.1c-.1.7-.1 1.2-.1 1.8zm-17.5-5.2 3.5 3.5h.2 3.1c.1 0 .2 0 .3-.1.9-.9 1.7-1.7 2.6-2.6 0 0 .1-.1.1-.1-1.8-1.8-3.5-3.5-5.2-5.2-1.6 1.4-3.1 2.9-4.6 4.5z"/>
</svg>