<svg width="24" height="24" viewBox="0 0 24 24" version="1.1" xmlns="http://www.w3.org/2000/svg" xmlns:xlink="http://www.w3.org/1999/xlink">
    <g id="Page-1" stroke="none" stroke-width="1" fill="none" fill-rule="evenodd">
        <polygon id="Path" points="0 0 24 0 24 24 0 24"></polygon>
        <path d="M16.7375649,4 L21.236068,11.9970061 L16.7348397,19.9994626 L7.5018203,20.0006467 L3,11.9970061 L7.49832909,4.0003479 L16.7375649,4 Z M8.73606798,5.99700608 L7.63018536,7.88746878 L13.4671162,17.9973295 L15.5,17.9970061 L16.5126451,16.2389926 L10.5994314,5.99700608 L8.73606798,5.99700608 Z M6.6434864,9.58428881 L5.23606798,11.9970061 L8.73606798,17.9970061 L11.5579671,17.9970061 L6.6434864,9.58428881 Z M17.5249398,14.5298193 L19,11.9970061 L15.5,5.99700608 L12.5985178,5.99700608 L17.5249398,14.5298193 Z" id="Shape" fill="#000000" fill-rule="nonzero"></path>
    </g>
</svg>