<svg xmlns="http://www.w3.org/2000/svg" width="24" height="24" viewBox="0 0 24 24">
  <path d="m0 0h24v24h-24z" fill="none"/>
  <path d="m6 12c-1.1 0-1.99.9-1.99 2l-.00501159 8h15.99501159v-4l-6-6zm7 7v-5.5l5.5 5.5zm-8.99628724-17h15.99628724v6c0 1.1-.9 2-2 2h-12.01c-1.1 0-1.99-.9-1.99-2z"/>
</svg>