<?xml version="1.0" encoding="iso-8859-1"?><svg version="1.1" id="Capa_1" xmlns="http://www.w3.org/2000/svg" xmlns:xlink="http://www.w3.org/1999/xlink" x="0px" y="0px"
	 viewBox="0 0 512 512" style="enable-background:new 0 0 512 512;" xml:space="preserve"><g><g><path d="M320,42.667h10.667c5.891,0,10.667-4.776,10.667-10.667V10.667C341.333,4.775,336.557,0,330.667,0H320
			c-25.458,0-48.354,12.188-64,31.469C240.354,12.188,217.458,0,192,0h-10.667c-5.891,0-10.667,4.775-10.667,10.667V32
			c0,5.891,4.776,10.667,10.667,10.667H192c23.521,0,42.667,22.469,42.667,50.083v141.917h-32c-5.891,0-10.667,4.775-10.667,10.667
			v21.333c0,5.891,4.776,10.667,10.667,10.667h32V419.25c0,27.615-19.146,50.083-42.667,50.083h-10.667
			c-5.891,0-10.667,4.775-10.667,10.667v21.333c0,5.891,4.776,10.667,10.667,10.667H192c25.458,0,48.354-12.188,64-31.469
			C271.646,499.813,294.542,512,320,512h10.667c5.891,0,10.667-4.776,10.667-10.667V480c0-5.892-4.776-10.667-10.667-10.667H320
			c-23.521,0-42.667-22.469-42.667-50.083V277.333h32c5.891,0,10.667-4.776,10.667-10.667v-21.333
			c0-5.892-4.776-10.667-10.667-10.667h-32V92.75C277.333,65.135,296.479,42.667,320,42.667z"/></g></g><g></g><g></g><g></g><g></g><g></g><g></g><g></g><g></g><g></g><g></g><g></g><g></g><g></g><g></g><g></g></svg>
