<svg xmlns="http://www.w3.org/2000/svg" width="24" height="24" viewBox="0 0 24 24">
  <path d="m0 0h24v24h-24z" fill="none"/>
  <path d="m10 6-1.41 1.41 4.58 4.59-4.58 4.59 1.41 1.41 6-6z"/>
</svg>