<svg
  xmlns="http://www.w3.org/2000/svg" viewBox="0 0 24 24">
  <defs>
    <style>.cls-1{fill:#abb0c4;}</style>
  </defs>
  <title>icon - tool - text manipulation - strikethrough</title>
  <rect class="cls-1" x="3.13" y="11.31" width="17.74" height="1.7"/>
  <path fill="default" class="cls-1" d="M12,5l2.4,5.77h2.68l-3.28-8A1.49,1.49,0,0,0,12.64,2H11.49a1.24,1.24,0,0,0-1.16.77L7,10.73H9.59Zm3.25,8.62,2,4.74h2.57l-2-4.74ZM4.17,18.32H6.74l2-4.74H6.18Z"/>
</svg>
