<svg
  xmlns="http://www.w3.org/2000/svg" viewBox="0 0 24 24">
  <defs>
    <style>.cls-1{fill:#abb0c4;}</style>
  </defs>
  <title>icon - tool - text manipulation - underline</title>
  <rect class="cls-1" x="2.8" y="20.29" width="18.4" height="1.7"/>
  <path fill="default" class="cls-1" d="M8.53,13.2h6.94l1.6,3.74h2.66L13.87,2.8a1.54,1.54,0,0,0-1.2-.8h-1.2a1.27,1.27,0,0,0-1.2.8l-6,14.14H6.93ZM12,5.07l2.4,5.73H9.6Z"/>
</svg>
