<svg xmlns="http://www.w3.org/2000/svg" width="24" height="24" viewBox="0 0 24 24">
  <path d="m0 0h24v24h-24z" fill="none"/>
  <path d="m2 11h20v2h-20z" transform="matrix(.70710678 -.70710678 .70710678 .70710678 -4.970563 12)"/>
</svg>