<svg
  xmlns="http://www.w3.org/2000/svg" viewBox="0 0 24 24">
  <defs>
    <style>.cls-1{fill:#8c8c8c;}</style>
  </defs>
  <title>icon - line - tool - highlight</title>
  <path class="cls-1" d="M9.91,13.07h3.86L11.84,8.46Zm5.46,3.68L14.62,15H9.05L7.77,18H5.63L10.45,6.64a1,1,0,0,1,1-.64h1a1.23,1.23,0,0,1,1,.64l2,4.91V4H5.85A2.22,2.22,0,0,0,3.63,6.22V17.78A2.22,2.22,0,0,0,5.85,20h9.52Z"/>
  <path fill="default" class="cls-1" d="M20.37,2V22h-2V2Z"/>
</svg>
